^C:\USERS\NICEL\DESKTOP\GAMMA RECODE\CSGOCHEAT\BASS\DLL.CPP
/c /Zi /nologo /W0 /WX- /diagnostics:classic /sdl- /Od /Oi /Oy- /D WIN32 /D NDEBUG /D ANTARIO_EXPORTS /D _WINDOWS /D _USRDLL /D _WINDLL /D _MBCS /Gm- /EHsc /MD /GS /Gy /fp:precise /Zc:wchar_t /Zc:forScope /Zc:inline /std:c++latest /Fo"C:\USERS\NICEL\DESKTOP\GAMMA RECODE\BIN\WIN32\RELEASE\\" /Fd"C:\USERS\NICEL\DESKTOP\GAMMA RECODE\BIN\WIN32\RELEASE\VC141.PDB" /Gd /TP /analyze- /FC C:\USERS\NICEL\DESKTOP\GAMMA RECODE\CSGOCHEAT\BASS\DLL.CPP
^C:\USERS\NICEL\DESKTOP\GAMMA RECODE\CSGOCHEAT\BASS\DLL_IMAGE.CPP
/c /Zi /nologo /W0 /WX- /diagnostics:classic /sdl- /Od /Oi /Oy- /D WIN32 /D NDEBUG /D ANTARIO_EXPORTS /D _WINDOWS /D _USRDLL /D _WINDLL /D _MBCS /Gm- /EHsc /MD /GS /Gy /fp:precise /Zc:wchar_t /Zc:forScope /Zc:inline /std:c++latest /Fo"C:\USERS\NICEL\DESKTOP\GAMMA RECODE\BIN\WIN32\RELEASE\\" /Fd"C:\USERS\NICEL\DESKTOP\GAMMA RECODE\BIN\WIN32\RELEASE\VC141.PDB" /Gd /TP /analyze- /FC C:\USERS\NICEL\DESKTOP\GAMMA RECODE\CSGOCHEAT\BASS\DLL_IMAGE.CPP
^C:\USERS\NICEL\DESKTOP\GAMMA RECODE\CSGOCHEAT\BLOOD_PREDICTION.CPP
/c /Zi /nologo /W0 /WX- /diagnostics:classic /sdl- /Od /Oi /Oy- /D WIN32 /D NDEBUG /D ANTARIO_EXPORTS /D _WINDOWS /D _USRDLL /D _WINDLL /D _MBCS /Gm- /EHsc /MD /GS /Gy /fp:precise /Zc:wchar_t /Zc:forScope /Zc:inline /std:c++latest /Fo"C:\USERS\NICEL\DESKTOP\GAMMA RECODE\BIN\WIN32\RELEASE\\" /Fd"C:\USERS\NICEL\DESKTOP\GAMMA RECODE\BIN\WIN32\RELEASE\VC141.PDB" /Gd /TP /analyze- /FC C:\USERS\NICEL\DESKTOP\GAMMA RECODE\CSGOCHEAT\BLOOD_PREDICTION.CPP
^C:\USERS\NICEL\DESKTOP\GAMMA RECODE\CSGOCHEAT\D3DFONT.CPP
/c /Zi /nologo /W0 /WX- /diagnostics:classic /sdl- /Od /Oi /Oy- /D WIN32 /D NDEBUG /D ANTARIO_EXPORTS /D _WINDOWS /D _USRDLL /D _WINDLL /D _MBCS /Gm- /EHsc /MD /GS /Gy /fp:precise /Zc:wchar_t /Zc:forScope /Zc:inline /std:c++latest /Fo"C:\USERS\NICEL\DESKTOP\GAMMA RECODE\BIN\WIN32\RELEASE\\" /Fd"C:\USERS\NICEL\DESKTOP\GAMMA RECODE\BIN\WIN32\RELEASE\VC141.PDB" /Gd /TP /analyze- /FC C:\USERS\NICEL\DESKTOP\GAMMA RECODE\CSGOCHEAT\D3DFONT.CPP
^C:\USERS\NICEL\DESKTOP\GAMMA RECODE\CSGOCHEAT\DLLMAIN.CPP
/c /Zi /nologo /W0 /WX- /diagnostics:classic /sdl- /Od /Oi /Oy- /D WIN32 /D NDEBUG /D ANTARIO_EXPORTS /D _WINDOWS /D _USRDLL /D _WINDLL /D _MBCS /Gm- /EHsc /MD /GS /Gy /fp:precise /Zc:wchar_t /Zc:forScope /Zc:inline /std:c++latest /Fo"C:\USERS\NICEL\DESKTOP\GAMMA RECODE\BIN\WIN32\RELEASE\\" /Fd"C:\USERS\NICEL\DESKTOP\GAMMA RECODE\BIN\WIN32\RELEASE\VC141.PDB" /Gd /TP /analyze- /FC C:\USERS\NICEL\DESKTOP\GAMMA RECODE\CSGOCHEAT\DLLMAIN.CPP
^C:\USERS\NICEL\DESKTOP\GAMMA RECODE\CSGOCHEAT\HACKS\AIMBOT_RECODE.CPP
/c /Zi /nologo /W0 /WX- /diagnostics:classic /sdl- /Od /Oi /Oy- /D WIN32 /D NDEBUG /D ANTARIO_EXPORTS /D _WINDOWS /D _USRDLL /D _WINDLL /D _MBCS /Gm- /EHsc /MD /GS /Gy /fp:precise /Zc:wchar_t /Zc:forScope /Zc:inline /std:c++latest /Fo"C:\USERS\NICEL\DESKTOP\GAMMA RECODE\BIN\WIN32\RELEASE\\" /Fd"C:\USERS\NICEL\DESKTOP\GAMMA RECODE\BIN\WIN32\RELEASE\VC141.PDB" /Gd /TP /analyze- /FC C:\USERS\NICEL\DESKTOP\GAMMA RECODE\CSGOCHEAT\HACKS\AIMBOT_RECODE.CPP
^C:\USERS\NICEL\DESKTOP\GAMMA RECODE\CSGOCHEAT\HACKS\C_AIMHELPER.CPP
/c /Zi /nologo /W0 /WX- /diagnostics:classic /sdl- /Od /Oi /Oy- /D WIN32 /D NDEBUG /D ANTARIO_EXPORTS /D _WINDOWS /D _USRDLL /D _WINDLL /D _MBCS /Gm- /EHsc /MD /GS /Gy /fp:precise /Zc:wchar_t /Zc:forScope /Zc:inline /std:c++latest /Fo"C:\USERS\NICEL\DESKTOP\GAMMA RECODE\BIN\WIN32\RELEASE\\" /Fd"C:\USERS\NICEL\DESKTOP\GAMMA RECODE\BIN\WIN32\RELEASE\VC141.PDB" /Gd /TP /analyze- /FC C:\USERS\NICEL\DESKTOP\GAMMA RECODE\CSGOCHEAT\HACKS\C_AIMHELPER.CPP
^C:\USERS\NICEL\DESKTOP\GAMMA RECODE\CSGOCHEAT\HACKS\C_ANIMATION_SYSTEM.CPP
/c /Zi /nologo /W0 /WX- /diagnostics:classic /sdl- /Od /Oi /Oy- /D WIN32 /D NDEBUG /D ANTARIO_EXPORTS /D _WINDOWS /D _USRDLL /D _WINDLL /D _MBCS /Gm- /EHsc /MD /GS /Gy /fp:precise /Zc:wchar_t /Zc:forScope /Zc:inline /std:c++latest /Fo"C:\USERS\NICEL\DESKTOP\GAMMA RECODE\BIN\WIN32\RELEASE\\" /Fd"C:\USERS\NICEL\DESKTOP\GAMMA RECODE\BIN\WIN32\RELEASE\VC141.PDB" /Gd /TP /analyze- /FC C:\USERS\NICEL\DESKTOP\GAMMA RECODE\CSGOCHEAT\HACKS\C_ANIMATION_SYSTEM.CPP
^C:\USERS\NICEL\DESKTOP\GAMMA RECODE\CSGOCHEAT\HACKS\C_ANTIAIM.CPP
/c /Zi /nologo /W0 /WX- /diagnostics:classic /sdl- /Od /Oi /Oy- /D WIN32 /D NDEBUG /D ANTARIO_EXPORTS /D _WINDOWS /D _USRDLL /D _WINDLL /D _MBCS /Gm- /EHsc /MD /GS /Gy /fp:precise /Zc:wchar_t /Zc:forScope /Zc:inline /std:c++latest /Fo"C:\USERS\NICEL\DESKTOP\GAMMA RECODE\BIN\WIN32\RELEASE\\" /Fd"C:\USERS\NICEL\DESKTOP\GAMMA RECODE\BIN\WIN32\RELEASE\VC141.PDB" /Gd /TP /analyze- /FC C:\USERS\NICEL\DESKTOP\GAMMA RECODE\CSGOCHEAT\HACKS\C_ANTIAIM.CPP
^C:\USERS\NICEL\DESKTOP\GAMMA RECODE\CSGOCHEAT\HACKS\C_CHAMS.CPP
/c /Zi /nologo /W0 /WX- /diagnostics:classic /sdl- /Od /Oi /Oy- /D WIN32 /D NDEBUG /D ANTARIO_EXPORTS /D _WINDOWS /D _USRDLL /D _WINDLL /D _MBCS /Gm- /EHsc /MD /GS /Gy /fp:precise /Zc:wchar_t /Zc:forScope /Zc:inline /std:c++latest /Fo"C:\USERS\NICEL\DESKTOP\GAMMA RECODE\BIN\WIN32\RELEASE\\" /Fd"C:\USERS\NICEL\DESKTOP\GAMMA RECODE\BIN\WIN32\RELEASE\VC141.PDB" /Gd /TP /analyze- /FC C:\USERS\NICEL\DESKTOP\GAMMA RECODE\CSGOCHEAT\HACKS\C_CHAMS.CPP
^C:\USERS\NICEL\DESKTOP\GAMMA RECODE\CSGOCHEAT\HACKS\C_DAMAGEESP.CPP
/c /Zi /nologo /W0 /WX- /diagnostics:classic /sdl- /Od /Oi /Oy- /D WIN32 /D NDEBUG /D ANTARIO_EXPORTS /D _WINDOWS /D _USRDLL /D _WINDLL /D _MBCS /Gm- /EHsc /MD /GS /Gy /fp:precise /Zc:wchar_t /Zc:forScope /Zc:inline /std:c++latest /Fo"C:\USERS\NICEL\DESKTOP\GAMMA RECODE\BIN\WIN32\RELEASE\\" /Fd"C:\USERS\NICEL\DESKTOP\GAMMA RECODE\BIN\WIN32\RELEASE\VC141.PDB" /Gd /TP /analyze- /FC C:\USERS\NICEL\DESKTOP\GAMMA RECODE\CSGOCHEAT\HACKS\C_DAMAGEESP.CPP
^C:\USERS\NICEL\DESKTOP\GAMMA RECODE\CSGOCHEAT\HACKS\C_ESP.CPP
/c /Zi /nologo /W0 /WX- /diagnostics:classic /sdl- /Od /Oi /Oy- /D WIN32 /D NDEBUG /D ANTARIO_EXPORTS /D _WINDOWS /D _USRDLL /D _WINDLL /D _MBCS /Gm- /EHsc /MD /GS /Gy /fp:precise /Zc:wchar_t /Zc:forScope /Zc:inline /std:c++latest /Fo"C:\USERS\NICEL\DESKTOP\GAMMA RECODE\BIN\WIN32\RELEASE\\" /Fd"C:\USERS\NICEL\DESKTOP\GAMMA RECODE\BIN\WIN32\RELEASE\VC141.PDB" /Gd /TP /analyze- /FC C:\USERS\NICEL\DESKTOP\GAMMA RECODE\CSGOCHEAT\HACKS\C_ESP.CPP
^C:\USERS\NICEL\DESKTOP\GAMMA RECODE\CSGOCHEAT\HACKS\C_FAKE_PING.CPP
/c /Zi /nologo /W0 /WX- /diagnostics:classic /sdl- /Od /Oi /Oy- /D WIN32 /D NDEBUG /D ANTARIO_EXPORTS /D _WINDOWS /D _USRDLL /D _WINDLL /D _MBCS /Gm- /EHsc /MD /GS /Gy /fp:precise /Zc:wchar_t /Zc:forScope /Zc:inline /std:c++latest /Fo"C:\USERS\NICEL\DESKTOP\GAMMA RECODE\BIN\WIN32\RELEASE\\" /Fd"C:\USERS\NICEL\DESKTOP\GAMMA RECODE\BIN\WIN32\RELEASE\VC141.PDB" /Gd /TP /analyze- /FC C:\USERS\NICEL\DESKTOP\GAMMA RECODE\CSGOCHEAT\HACKS\C_FAKE_PING.CPP
^C:\USERS\NICEL\DESKTOP\GAMMA RECODE\CSGOCHEAT\HACKS\C_HITMARKER.CPP
/c /Zi /nologo /W0 /WX- /diagnostics:classic /sdl- /Od /Oi /Oy- /D WIN32 /D NDEBUG /D ANTARIO_EXPORTS /D _WINDOWS /D _USRDLL /D _WINDLL /D _MBCS /Gm- /EHsc /MD /GS /Gy /fp:precise /Zc:wchar_t /Zc:forScope /Zc:inline /std:c++latest /Fo"C:\USERS\NICEL\DESKTOP\GAMMA RECODE\BIN\WIN32\RELEASE\\" /Fd"C:\USERS\NICEL\DESKTOP\GAMMA RECODE\BIN\WIN32\RELEASE\VC141.PDB" /Gd /TP /analyze- /FC C:\USERS\NICEL\DESKTOP\GAMMA RECODE\CSGOCHEAT\HACKS\C_HITMARKER.CPP
^C:\USERS\NICEL\DESKTOP\GAMMA RECODE\CSGOCHEAT\HACKS\C_LEGITBOT.CPP
/c /Zi /nologo /W0 /WX- /diagnostics:classic /sdl- /Od /Oi /Oy- /D WIN32 /D NDEBUG /D ANTARIO_EXPORTS /D _WINDOWS /D _USRDLL /D _WINDLL /D _MBCS /Gm- /EHsc /MD /GS /Gy /fp:precise /Zc:wchar_t /Zc:forScope /Zc:inline /std:c++latest /Fo"C:\USERS\NICEL\DESKTOP\GAMMA RECODE\BIN\WIN32\RELEASE\\" /Fd"C:\USERS\NICEL\DESKTOP\GAMMA RECODE\BIN\WIN32\RELEASE\VC141.PDB" /Gd /TP /analyze- /FC C:\USERS\NICEL\DESKTOP\GAMMA RECODE\CSGOCHEAT\HACKS\C_LEGITBOT.CPP
^C:\USERS\NICEL\DESKTOP\GAMMA RECODE\CSGOCHEAT\HACKS\C_LEGITBOT_BETA.CPP
/c /Zi /nologo /W0 /WX- /diagnostics:classic /sdl- /Od /Oi /Oy- /D WIN32 /D NDEBUG /D ANTARIO_EXPORTS /D _WINDOWS /D _USRDLL /D _WINDLL /D _MBCS /Gm- /EHsc /MD /GS /Gy /fp:precise /Zc:wchar_t /Zc:forScope /Zc:inline /std:c++latest /Fo"C:\USERS\NICEL\DESKTOP\GAMMA RECODE\BIN\WIN32\RELEASE\\" /Fd"C:\USERS\NICEL\DESKTOP\GAMMA RECODE\BIN\WIN32\RELEASE\VC141.PDB" /Gd /TP /analyze- /FC C:\USERS\NICEL\DESKTOP\GAMMA RECODE\CSGOCHEAT\HACKS\C_LEGITBOT_BETA.CPP
^C:\USERS\NICEL\DESKTOP\GAMMA RECODE\CSGOCHEAT\HACKS\C_MISCELLANEOUS.CPP
/c /Zi /nologo /W0 /WX- /diagnostics:classic /sdl- /Od /Oi /Oy- /D WIN32 /D NDEBUG /D ANTARIO_EXPORTS /D _WINDOWS /D _USRDLL /D _WINDLL /D _MBCS /Gm- /EHsc /MD /GS /Gy /fp:precise /Zc:wchar_t /Zc:forScope /Zc:inline /std:c++latest /Fo"C:\USERS\NICEL\DESKTOP\GAMMA RECODE\BIN\WIN32\RELEASE\\" /Fd"C:\USERS\NICEL\DESKTOP\GAMMA RECODE\BIN\WIN32\RELEASE\VC141.PDB" /Gd /TP /analyze- /FC C:\USERS\NICEL\DESKTOP\GAMMA RECODE\CSGOCHEAT\HACKS\C_MISCELLANEOUS.CPP
^C:\USERS\NICEL\DESKTOP\GAMMA RECODE\CSGOCHEAT\HACKS\C_MOVEMENT.CPP
/c /Zi /nologo /W0 /WX- /diagnostics:classic /sdl- /Od /Oi /Oy- /D WIN32 /D NDEBUG /D ANTARIO_EXPORTS /D _WINDOWS /D _USRDLL /D _WINDLL /D _MBCS /Gm- /EHsc /MD /GS /Gy /fp:precise /Zc:wchar_t /Zc:forScope /Zc:inline /std:c++latest /Fo"C:\USERS\NICEL\DESKTOP\GAMMA RECODE\BIN\WIN32\RELEASE\\" /Fd"C:\USERS\NICEL\DESKTOP\GAMMA RECODE\BIN\WIN32\RELEASE\VC141.PDB" /Gd /TP /analyze- /FC C:\USERS\NICEL\DESKTOP\GAMMA RECODE\CSGOCHEAT\HACKS\C_MOVEMENT.CPP
^C:\USERS\NICEL\DESKTOP\GAMMA RECODE\CSGOCHEAT\HACKS\C_PREDICTION_SYSTEM.CPP
/c /Zi /nologo /W0 /WX- /diagnostics:classic /sdl- /Od /Oi /Oy- /D WIN32 /D NDEBUG /D ANTARIO_EXPORTS /D _WINDOWS /D _USRDLL /D _WINDLL /D _MBCS /Gm- /EHsc /MD /GS /Gy /fp:precise /Zc:wchar_t /Zc:forScope /Zc:inline /std:c++latest /Fo"C:\USERS\NICEL\DESKTOP\GAMMA RECODE\BIN\WIN32\RELEASE\\" /Fd"C:\USERS\NICEL\DESKTOP\GAMMA RECODE\BIN\WIN32\RELEASE\VC141.PDB" /Gd /TP /analyze- /FC C:\USERS\NICEL\DESKTOP\GAMMA RECODE\CSGOCHEAT\HACKS\C_PREDICTION_SYSTEM.CPP
^C:\USERS\NICEL\DESKTOP\GAMMA RECODE\CSGOCHEAT\HACKS\C_RAGEBOT.CPP
/c /Zi /nologo /W0 /WX- /diagnostics:classic /sdl- /Od /Oi /Oy- /D WIN32 /D NDEBUG /D ANTARIO_EXPORTS /D _WINDOWS /D _USRDLL /D _WINDLL /D _MBCS /Gm- /EHsc /MD /GS /Gy /fp:precise /Zc:wchar_t /Zc:forScope /Zc:inline /std:c++latest /Fo"C:\USERS\NICEL\DESKTOP\GAMMA RECODE\BIN\WIN32\RELEASE\\" /Fd"C:\USERS\NICEL\DESKTOP\GAMMA RECODE\BIN\WIN32\RELEASE\VC141.PDB" /Gd /TP /analyze- /FC C:\USERS\NICEL\DESKTOP\GAMMA RECODE\CSGOCHEAT\HACKS\C_RAGEBOT.CPP
^C:\USERS\NICEL\DESKTOP\GAMMA RECODE\CSGOCHEAT\HACKS\C_RESOLVER.CPP
/c /Zi /nologo /W0 /WX- /diagnostics:classic /sdl- /Od /Oi /Oy- /D WIN32 /D NDEBUG /D ANTARIO_EXPORTS /D _WINDOWS /D _USRDLL /D _WINDLL /D _MBCS /Gm- /EHsc /MD /GS /Gy /fp:precise /Zc:wchar_t /Zc:forScope /Zc:inline /std:c++latest /Fo"C:\USERS\NICEL\DESKTOP\GAMMA RECODE\BIN\WIN32\RELEASE\\" /Fd"C:\USERS\NICEL\DESKTOP\GAMMA RECODE\BIN\WIN32\RELEASE\VC141.PDB" /Gd /TP /analyze- /FC C:\USERS\NICEL\DESKTOP\GAMMA RECODE\CSGOCHEAT\HACKS\C_RESOLVER.CPP
^C:\USERS\NICEL\DESKTOP\GAMMA RECODE\CSGOCHEAT\HACKS\C_TRACE_SYSTEM.CPP
/c /Zi /nologo /W0 /WX- /diagnostics:classic /sdl- /Od /Oi /Oy- /D WIN32 /D NDEBUG /D ANTARIO_EXPORTS /D _WINDOWS /D _USRDLL /D _WINDLL /D _MBCS /Gm- /EHsc /MD /GS /Gy /fp:precise /Zc:wchar_t /Zc:forScope /Zc:inline /std:c++latest /Fo"C:\USERS\NICEL\DESKTOP\GAMMA RECODE\BIN\WIN32\RELEASE\\" /Fd"C:\USERS\NICEL\DESKTOP\GAMMA RECODE\BIN\WIN32\RELEASE\VC141.PDB" /Gd /TP /analyze- /FC C:\USERS\NICEL\DESKTOP\GAMMA RECODE\CSGOCHEAT\HACKS\C_TRACE_SYSTEM.CPP
^C:\USERS\NICEL\DESKTOP\GAMMA RECODE\CSGOCHEAT\HACKS\GRENADE_PREDICTION.CPP
/c /Zi /nologo /W0 /WX- /diagnostics:classic /sdl- /Od /Oi /Oy- /D WIN32 /D NDEBUG /D ANTARIO_EXPORTS /D _WINDOWS /D _USRDLL /D _WINDLL /D _MBCS /Gm- /EHsc /MD /GS /Gy /fp:precise /Zc:wchar_t /Zc:forScope /Zc:inline /std:c++latest /Fo"C:\USERS\NICEL\DESKTOP\GAMMA RECODE\BIN\WIN32\RELEASE\\" /Fd"C:\USERS\NICEL\DESKTOP\GAMMA RECODE\BIN\WIN32\RELEASE\VC141.PDB" /Gd /TP /analyze- /FC C:\USERS\NICEL\DESKTOP\GAMMA RECODE\CSGOCHEAT\HACKS\GRENADE_PREDICTION.CPP
^C:\USERS\NICEL\DESKTOP\GAMMA RECODE\CSGOCHEAT\HOOKS\CTE_EFFECTS.CPP
/c /Zi /nologo /W0 /WX- /diagnostics:classic /sdl- /Od /Oi /Oy- /D WIN32 /D NDEBUG /D ANTARIO_EXPORTS /D _WINDOWS /D _USRDLL /D _WINDLL /D _MBCS /Gm- /EHsc /MD /GS /Gy /fp:precise /Zc:wchar_t /Zc:forScope /Zc:inline /std:c++latest /Fo"C:\USERS\NICEL\DESKTOP\GAMMA RECODE\BIN\WIN32\RELEASE\\" /Fd"C:\USERS\NICEL\DESKTOP\GAMMA RECODE\BIN\WIN32\RELEASE\VC141.PDB" /Gd /TP /analyze- /FC C:\USERS\NICEL\DESKTOP\GAMMA RECODE\CSGOCHEAT\HOOKS\CTE_EFFECTS.CPP
^C:\USERS\NICEL\DESKTOP\GAMMA RECODE\CSGOCHEAT\HOOKS\C_BASE_ANIMATING_.CPP
/c /Zi /nologo /W0 /WX- /diagnostics:classic /sdl- /Od /Oi /Oy- /D WIN32 /D NDEBUG /D ANTARIO_EXPORTS /D _WINDOWS /D _USRDLL /D _WINDLL /D _MBCS /Gm- /EHsc /MD /GS /Gy /fp:precise /Zc:wchar_t /Zc:forScope /Zc:inline /std:c++latest /Fo"C:\USERS\NICEL\DESKTOP\GAMMA RECODE\BIN\WIN32\RELEASE\\" /Fd"C:\USERS\NICEL\DESKTOP\GAMMA RECODE\BIN\WIN32\RELEASE\VC141.PDB" /Gd /TP /analyze- /FC C:\USERS\NICEL\DESKTOP\GAMMA RECODE\CSGOCHEAT\HOOKS\C_BASE_ANIMATING_.CPP
^C:\USERS\NICEL\DESKTOP\GAMMA RECODE\CSGOCHEAT\HOOKS\C_CLIENT.CPP
/c /Zi /nologo /W0 /WX- /diagnostics:classic /sdl- /Od /Oi /Oy- /D WIN32 /D NDEBUG /D ANTARIO_EXPORTS /D _WINDOWS /D _USRDLL /D _WINDLL /D _MBCS /Gm- /EHsc /MD /GS /Gy /fp:precise /Zc:wchar_t /Zc:forScope /Zc:inline /std:c++latest /Fo"C:\USERS\NICEL\DESKTOP\GAMMA RECODE\BIN\WIN32\RELEASE\\" /Fd"C:\USERS\NICEL\DESKTOP\GAMMA RECODE\BIN\WIN32\RELEASE\VC141.PDB" /Gd /TP /analyze- /FC C:\USERS\NICEL\DESKTOP\GAMMA RECODE\CSGOCHEAT\HOOKS\C_CLIENT.CPP
^C:\USERS\NICEL\DESKTOP\GAMMA RECODE\CSGOCHEAT\HOOKS\C_CLIENT_MODE_SHARED.CPP
/c /Zi /nologo /W0 /WX- /diagnostics:classic /sdl- /Od /Oi /Oy- /D WIN32 /D NDEBUG /D ANTARIO_EXPORTS /D _WINDOWS /D _USRDLL /D _WINDLL /D _MBCS /Gm- /EHsc /MD /GS /Gy /fp:precise /Zc:wchar_t /Zc:forScope /Zc:inline /std:c++latest /Fo"C:\USERS\NICEL\DESKTOP\GAMMA RECODE\BIN\WIN32\RELEASE\\" /Fd"C:\USERS\NICEL\DESKTOP\GAMMA RECODE\BIN\WIN32\RELEASE\VC141.PDB" /Gd /TP /analyze- /FC C:\USERS\NICEL\DESKTOP\GAMMA RECODE\CSGOCHEAT\HOOKS\C_CLIENT_MODE_SHARED.CPP
^C:\USERS\NICEL\DESKTOP\GAMMA RECODE\CSGOCHEAT\HOOKS\C_CLIENT_STATE_.CPP
/c /Zi /nologo /W0 /WX- /diagnostics:classic /sdl- /Od /Oi /Oy- /D WIN32 /D NDEBUG /D ANTARIO_EXPORTS /D _WINDOWS /D _USRDLL /D _WINDLL /D _MBCS /Gm- /EHsc /MD /GS /Gy /fp:precise /Zc:wchar_t /Zc:forScope /Zc:inline /std:c++latest /Fo"C:\USERS\NICEL\DESKTOP\GAMMA RECODE\BIN\WIN32\RELEASE\\" /Fd"C:\USERS\NICEL\DESKTOP\GAMMA RECODE\BIN\WIN32\RELEASE\VC141.PDB" /Gd /TP /analyze- /FC C:\USERS\NICEL\DESKTOP\GAMMA RECODE\CSGOCHEAT\HOOKS\C_CLIENT_STATE_.CPP
^C:\USERS\NICEL\DESKTOP\GAMMA RECODE\CSGOCHEAT\HOOKS\C_CL_CAMERA_HEIGHT_RESTRICTION_DEBUG.CPP
/c /Zi /nologo /W0 /WX- /diagnostics:classic /sdl- /Od /Oi /Oy- /D WIN32 /D NDEBUG /D ANTARIO_EXPORTS /D _WINDOWS /D _USRDLL /D _WINDLL /D _MBCS /Gm- /EHsc /MD /GS /Gy /fp:precise /Zc:wchar_t /Zc:forScope /Zc:inline /std:c++latest /Fo"C:\USERS\NICEL\DESKTOP\GAMMA RECODE\BIN\WIN32\RELEASE\\" /Fd"C:\USERS\NICEL\DESKTOP\GAMMA RECODE\BIN\WIN32\RELEASE\VC141.PDB" /Gd /TP /analyze- /FC C:\USERS\NICEL\DESKTOP\GAMMA RECODE\CSGOCHEAT\HOOKS\C_CL_CAMERA_HEIGHT_RESTRICTION_DEBUG.CPP
^C:\USERS\NICEL\DESKTOP\GAMMA RECODE\CSGOCHEAT\HOOKS\C_CL_CSM_SHADOWS.CPP
/c /Zi /nologo /W0 /WX- /diagnostics:classic /sdl- /Od /Oi /Oy- /D WIN32 /D NDEBUG /D ANTARIO_EXPORTS /D _WINDOWS /D _USRDLL /D _WINDLL /D _MBCS /Gm- /EHsc /MD /GS /Gy /fp:precise /Zc:wchar_t /Zc:forScope /Zc:inline /std:c++latest /Fo"C:\USERS\NICEL\DESKTOP\GAMMA RECODE\BIN\WIN32\RELEASE\\" /Fd"C:\USERS\NICEL\DESKTOP\GAMMA RECODE\BIN\WIN32\RELEASE\VC141.PDB" /Gd /TP /analyze- /FC C:\USERS\NICEL\DESKTOP\GAMMA RECODE\CSGOCHEAT\HOOKS\C_CL_CSM_SHADOWS.CPP
^C:\USERS\NICEL\DESKTOP\GAMMA RECODE\CSGOCHEAT\HOOKS\C_CS_PLAYER_.CPP
/c /Zi /nologo /W0 /WX- /diagnostics:classic /sdl- /Od /Oi /Oy- /D WIN32 /D NDEBUG /D ANTARIO_EXPORTS /D _WINDOWS /D _USRDLL /D _WINDLL /D _MBCS /Gm- /EHsc /MD /GS /Gy /fp:precise /Zc:wchar_t /Zc:forScope /Zc:inline /std:c++latest /Fo"C:\USERS\NICEL\DESKTOP\GAMMA RECODE\BIN\WIN32\RELEASE\\" /Fd"C:\USERS\NICEL\DESKTOP\GAMMA RECODE\BIN\WIN32\RELEASE\VC141.PDB" /Gd /TP /analyze- /FC C:\USERS\NICEL\DESKTOP\GAMMA RECODE\CSGOCHEAT\HOOKS\C_CS_PLAYER_.CPP
^C:\USERS\NICEL\DESKTOP\GAMMA RECODE\CSGOCHEAT\HOOKS\C_ENGINE_CLIENT.CPP
/c /Zi /nologo /W0 /WX- /diagnostics:classic /sdl- /Od /Oi /Oy- /D WIN32 /D NDEBUG /D ANTARIO_EXPORTS /D _WINDOWS /D _USRDLL /D _WINDLL /D _MBCS /Gm- /EHsc /MD /GS /Gy /fp:precise /Zc:wchar_t /Zc:forScope /Zc:inline /std:c++latest /Fo"C:\USERS\NICEL\DESKTOP\GAMMA RECODE\BIN\WIN32\RELEASE\\" /Fd"C:\USERS\NICEL\DESKTOP\GAMMA RECODE\BIN\WIN32\RELEASE\VC141.PDB" /Gd /TP /analyze- /FC C:\USERS\NICEL\DESKTOP\GAMMA RECODE\CSGOCHEAT\HOOKS\C_ENGINE_CLIENT.CPP
^C:\USERS\NICEL\DESKTOP\GAMMA RECODE\CSGOCHEAT\HOOKS\C_ENGINE_SOUND_.CPP
/c /Zi /nologo /W0 /WX- /diagnostics:classic /sdl- /Od /Oi /Oy- /D WIN32 /D NDEBUG /D ANTARIO_EXPORTS /D _WINDOWS /D _USRDLL /D _WINDLL /D _MBCS /Gm- /EHsc /MD /GS /Gy /fp:precise /Zc:wchar_t /Zc:forScope /Zc:inline /std:c++latest /Fo"C:\USERS\NICEL\DESKTOP\GAMMA RECODE\BIN\WIN32\RELEASE\\" /Fd"C:\USERS\NICEL\DESKTOP\GAMMA RECODE\BIN\WIN32\RELEASE\VC141.PDB" /Gd /TP /analyze- /FC C:\USERS\NICEL\DESKTOP\GAMMA RECODE\CSGOCHEAT\HOOKS\C_ENGINE_SOUND_.CPP
^C:\USERS\NICEL\DESKTOP\GAMMA RECODE\CSGOCHEAT\HOOKS\C_EVENTS.CPP
/c /Zi /nologo /W0 /WX- /diagnostics:classic /sdl- /Od /Oi /Oy- /D WIN32 /D NDEBUG /D ANTARIO_EXPORTS /D _WINDOWS /D _USRDLL /D _WINDLL /D _MBCS /Gm- /EHsc /MD /GS /Gy /fp:precise /Zc:wchar_t /Zc:forScope /Zc:inline /std:c++latest /Fo"C:\USERS\NICEL\DESKTOP\GAMMA RECODE\BIN\WIN32\RELEASE\\" /Fd"C:\USERS\NICEL\DESKTOP\GAMMA RECODE\BIN\WIN32\RELEASE\VC141.PDB" /Gd /TP /analyze- /FC C:\USERS\NICEL\DESKTOP\GAMMA RECODE\CSGOCHEAT\HOOKS\C_EVENTS.CPP
^C:\USERS\NICEL\DESKTOP\GAMMA RECODE\CSGOCHEAT\HOOKS\C_GAME_EVENT_MANAGER_.CPP
/c /Zi /nologo /W0 /WX- /diagnostics:classic /sdl- /Od /Oi /Oy- /D WIN32 /D NDEBUG /D ANTARIO_EXPORTS /D _WINDOWS /D _USRDLL /D _WINDLL /D _MBCS /Gm- /EHsc /MD /GS /Gy /fp:precise /Zc:wchar_t /Zc:forScope /Zc:inline /std:c++latest /Fo"C:\USERS\NICEL\DESKTOP\GAMMA RECODE\BIN\WIN32\RELEASE\\" /Fd"C:\USERS\NICEL\DESKTOP\GAMMA RECODE\BIN\WIN32\RELEASE\VC141.PDB" /Gd /TP /analyze- /FC C:\USERS\NICEL\DESKTOP\GAMMA RECODE\CSGOCHEAT\HOOKS\C_GAME_EVENT_MANAGER_.CPP
^C:\USERS\NICEL\DESKTOP\GAMMA RECODE\CSGOCHEAT\HOOKS\C_HOOKS.CPP
/c /Zi /nologo /W0 /WX- /diagnostics:classic /sdl- /Od /Oi /Oy- /D WIN32 /D NDEBUG /D ANTARIO_EXPORTS /D _WINDOWS /D _USRDLL /D _WINDLL /D _MBCS /Gm- /EHsc /MD /GS /Gy /fp:precise /Zc:wchar_t /Zc:forScope /Zc:inline /std:c++latest /Fo"C:\USERS\NICEL\DESKTOP\GAMMA RECODE\BIN\WIN32\RELEASE\\" /Fd"C:\USERS\NICEL\DESKTOP\GAMMA RECODE\BIN\WIN32\RELEASE\VC141.PDB" /Gd /TP /analyze- /FC C:\USERS\NICEL\DESKTOP\GAMMA RECODE\CSGOCHEAT\HOOKS\C_HOOKS.CPP
^C:\USERS\NICEL\DESKTOP\GAMMA RECODE\CSGOCHEAT\HOOKS\C_MDL_CACHE.CPP
/c /Zi /nologo /W0 /WX- /diagnostics:classic /sdl- /Od /Oi /Oy- /D WIN32 /D NDEBUG /D ANTARIO_EXPORTS /D _WINDOWS /D _USRDLL /D _WINDLL /D _MBCS /Gm- /EHsc /MD /GS /Gy /fp:precise /Zc:wchar_t /Zc:forScope /Zc:inline /std:c++latest /Fo"C:\USERS\NICEL\DESKTOP\GAMMA RECODE\BIN\WIN32\RELEASE\\" /Fd"C:\USERS\NICEL\DESKTOP\GAMMA RECODE\BIN\WIN32\RELEASE\VC141.PDB" /Gd /TP /analyze- /FC C:\USERS\NICEL\DESKTOP\GAMMA RECODE\CSGOCHEAT\HOOKS\C_MDL_CACHE.CPP
^C:\USERS\NICEL\DESKTOP\GAMMA RECODE\CSGOCHEAT\HOOKS\C_MODEL_RENDER_.CPP
/c /Zi /nologo /W0 /WX- /diagnostics:classic /sdl- /Od /Oi /Oy- /D WIN32 /D NDEBUG /D ANTARIO_EXPORTS /D _WINDOWS /D _USRDLL /D _WINDLL /D _MBCS /Gm- /EHsc /MD /GS /Gy /fp:precise /Zc:wchar_t /Zc:forScope /Zc:inline /std:c++latest /Fo"C:\USERS\NICEL\DESKTOP\GAMMA RECODE\BIN\WIN32\RELEASE\\" /Fd"C:\USERS\NICEL\DESKTOP\GAMMA RECODE\BIN\WIN32\RELEASE\VC141.PDB" /Gd /TP /analyze- /FC C:\USERS\NICEL\DESKTOP\GAMMA RECODE\CSGOCHEAT\HOOKS\C_MODEL_RENDER_.CPP
^C:\USERS\NICEL\DESKTOP\GAMMA RECODE\CSGOCHEAT\HOOKS\C_NET_CHANNEL_.CPP
/c /Zi /nologo /W0 /WX- /diagnostics:classic /sdl- /Od /Oi /Oy- /D WIN32 /D NDEBUG /D ANTARIO_EXPORTS /D _WINDOWS /D _USRDLL /D _WINDLL /D _MBCS /Gm- /EHsc /MD /GS /Gy /fp:precise /Zc:wchar_t /Zc:forScope /Zc:inline /std:c++latest /Fo"C:\USERS\NICEL\DESKTOP\GAMMA RECODE\BIN\WIN32\RELEASE\\" /Fd"C:\USERS\NICEL\DESKTOP\GAMMA RECODE\BIN\WIN32\RELEASE\VC141.PDB" /Gd /TP /analyze- /FC C:\USERS\NICEL\DESKTOP\GAMMA RECODE\CSGOCHEAT\HOOKS\C_NET_CHANNEL_.CPP
^C:\USERS\NICEL\DESKTOP\GAMMA RECODE\CSGOCHEAT\HOOKS\C_PANEL_.CPP
/c /Zi /nologo /W0 /WX- /diagnostics:classic /sdl- /Od /Oi /Oy- /D WIN32 /D NDEBUG /D ANTARIO_EXPORTS /D _WINDOWS /D _USRDLL /D _WINDLL /D _MBCS /Gm- /EHsc /MD /GS /Gy /fp:precise /Zc:wchar_t /Zc:forScope /Zc:inline /std:c++latest /Fo"C:\USERS\NICEL\DESKTOP\GAMMA RECODE\BIN\WIN32\RELEASE\\" /Fd"C:\USERS\NICEL\DESKTOP\GAMMA RECODE\BIN\WIN32\RELEASE\VC141.PDB" /Gd /TP /analyze- /FC C:\USERS\NICEL\DESKTOP\GAMMA RECODE\CSGOCHEAT\HOOKS\C_PANEL_.CPP
^C:\USERS\NICEL\DESKTOP\GAMMA RECODE\CSGOCHEAT\HOOKS\C_PREDICTION_.CPP
/c /Zi /nologo /W0 /WX- /diagnostics:classic /sdl- /Od /Oi /Oy- /D WIN32 /D NDEBUG /D ANTARIO_EXPORTS /D _WINDOWS /D _USRDLL /D _WINDLL /D _MBCS /Gm- /EHsc /MD /GS /Gy /fp:precise /Zc:wchar_t /Zc:forScope /Zc:inline /std:c++latest /Fo"C:\USERS\NICEL\DESKTOP\GAMMA RECODE\BIN\WIN32\RELEASE\\" /Fd"C:\USERS\NICEL\DESKTOP\GAMMA RECODE\BIN\WIN32\RELEASE\VC141.PDB" /Gd /TP /analyze- /FC C:\USERS\NICEL\DESKTOP\GAMMA RECODE\CSGOCHEAT\HOOKS\C_PREDICTION_.CPP
^C:\USERS\NICEL\DESKTOP\GAMMA RECODE\CSGOCHEAT\HOOKS\C_RENDER_VIEW_.CPP
/c /Zi /nologo /W0 /WX- /diagnostics:classic /sdl- /Od /Oi /Oy- /D WIN32 /D NDEBUG /D ANTARIO_EXPORTS /D _WINDOWS /D _USRDLL /D _WINDLL /D _MBCS /Gm- /EHsc /MD /GS /Gy /fp:precise /Zc:wchar_t /Zc:forScope /Zc:inline /std:c++latest /Fo"C:\USERS\NICEL\DESKTOP\GAMMA RECODE\BIN\WIN32\RELEASE\\" /Fd"C:\USERS\NICEL\DESKTOP\GAMMA RECODE\BIN\WIN32\RELEASE\VC141.PDB" /Gd /TP /analyze- /FC C:\USERS\NICEL\DESKTOP\GAMMA RECODE\CSGOCHEAT\HOOKS\C_RENDER_VIEW_.CPP
^C:\USERS\NICEL\DESKTOP\GAMMA RECODE\CSGOCHEAT\HOOKS\C_SMOKE_GRENADE_PROJECTILE_.CPP
/c /Zi /nologo /W0 /WX- /diagnostics:classic /sdl- /Od /Oi /Oy- /D WIN32 /D NDEBUG /D ANTARIO_EXPORTS /D _WINDOWS /D _USRDLL /D _WINDLL /D _MBCS /Gm- /EHsc /MD /GS /Gy /fp:precise /Zc:wchar_t /Zc:forScope /Zc:inline /std:c++latest /Fo"C:\USERS\NICEL\DESKTOP\GAMMA RECODE\BIN\WIN32\RELEASE\\" /Fd"C:\USERS\NICEL\DESKTOP\GAMMA RECODE\BIN\WIN32\RELEASE\VC141.PDB" /Gd /TP /analyze- /FC C:\USERS\NICEL\DESKTOP\GAMMA RECODE\CSGOCHEAT\HOOKS\C_SMOKE_GRENADE_PROJECTILE_.CPP
^C:\USERS\NICEL\DESKTOP\GAMMA RECODE\CSGOCHEAT\HOOKS\C_SURFACE_.CPP
/c /Zi /nologo /W0 /WX- /diagnostics:classic /sdl- /Od /Oi /Oy- /D WIN32 /D NDEBUG /D ANTARIO_EXPORTS /D _WINDOWS /D _USRDLL /D _WINDLL /D _MBCS /Gm- /EHsc /MD /GS /Gy /fp:precise /Zc:wchar_t /Zc:forScope /Zc:inline /std:c++latest /Fo"C:\USERS\NICEL\DESKTOP\GAMMA RECODE\BIN\WIN32\RELEASE\\" /Fd"C:\USERS\NICEL\DESKTOP\GAMMA RECODE\BIN\WIN32\RELEASE\VC141.PDB" /Gd /TP /analyze- /FC C:\USERS\NICEL\DESKTOP\GAMMA RECODE\CSGOCHEAT\HOOKS\C_SURFACE_.CPP
^C:\USERS\NICEL\DESKTOP\GAMMA RECODE\CSGOCHEAT\HOOKS\C_SV_CHEATS.CPP
/c /Zi /nologo /W0 /WX- /diagnostics:classic /sdl- /Od /Oi /Oy- /D WIN32 /D NDEBUG /D ANTARIO_EXPORTS /D _WINDOWS /D _USRDLL /D _WINDLL /D _MBCS /Gm- /EHsc /MD /GS /Gy /fp:precise /Zc:wchar_t /Zc:forScope /Zc:inline /std:c++latest /Fo"C:\USERS\NICEL\DESKTOP\GAMMA RECODE\BIN\WIN32\RELEASE\\" /Fd"C:\USERS\NICEL\DESKTOP\GAMMA RECODE\BIN\WIN32\RELEASE\VC141.PDB" /Gd /TP /analyze- /FC C:\USERS\NICEL\DESKTOP\GAMMA RECODE\CSGOCHEAT\HOOKS\C_SV_CHEATS.CPP
^C:\USERS\NICEL\DESKTOP\GAMMA RECODE\CSGOCHEAT\HOOKS\C_VIEW_RENDER_.CPP
/c /Zi /nologo /W0 /WX- /diagnostics:classic /sdl- /Od /Oi /Oy- /D WIN32 /D NDEBUG /D ANTARIO_EXPORTS /D _WINDOWS /D _USRDLL /D _WINDLL /D _MBCS /Gm- /EHsc /MD /GS /Gy /fp:precise /Zc:wchar_t /Zc:forScope /Zc:inline /std:c++latest /Fo"C:\USERS\NICEL\DESKTOP\GAMMA RECODE\BIN\WIN32\RELEASE\\" /Fd"C:\USERS\NICEL\DESKTOP\GAMMA RECODE\BIN\WIN32\RELEASE\VC141.PDB" /Gd /TP /analyze- /FC C:\USERS\NICEL\DESKTOP\GAMMA RECODE\CSGOCHEAT\HOOKS\C_VIEW_RENDER_.CPP
^C:\USERS\NICEL\DESKTOP\GAMMA RECODE\CSGOCHEAT\HOOKS\C_WND_PROC.CPP
/c /Zi /nologo /W0 /WX- /diagnostics:classic /sdl- /Od /Oi /Oy- /D WIN32 /D NDEBUG /D ANTARIO_EXPORTS /D _WINDOWS /D _USRDLL /D _WINDLL /D _MBCS /Gm- /EHsc /MD /GS /Gy /fp:precise /Zc:wchar_t /Zc:forScope /Zc:inline /std:c++latest /Fo"C:\USERS\NICEL\DESKTOP\GAMMA RECODE\BIN\WIN32\RELEASE\\" /Fd"C:\USERS\NICEL\DESKTOP\GAMMA RECODE\BIN\WIN32\RELEASE\VC141.PDB" /Gd /TP /analyze- /FC C:\USERS\NICEL\DESKTOP\GAMMA RECODE\CSGOCHEAT\HOOKS\C_WND_PROC.CPP
^C:\USERS\NICEL\DESKTOP\GAMMA RECODE\CSGOCHEAT\HOOKS\IDIRECT3DDEVICE9.CPP
/c /Zi /nologo /W0 /WX- /diagnostics:classic /sdl- /Od /Oi /Oy- /D WIN32 /D NDEBUG /D ANTARIO_EXPORTS /D _WINDOWS /D _USRDLL /D _WINDLL /D _MBCS /Gm- /EHsc /MD /GS /Gy /fp:precise /Zc:wchar_t /Zc:forScope /Zc:inline /std:c++latest /Fo"C:\USERS\NICEL\DESKTOP\GAMMA RECODE\BIN\WIN32\RELEASE\\" /Fd"C:\USERS\NICEL\DESKTOP\GAMMA RECODE\BIN\WIN32\RELEASE\VC141.PDB" /Gd /TP /analyze- /FC C:\USERS\NICEL\DESKTOP\GAMMA RECODE\CSGOCHEAT\HOOKS\IDIRECT3DDEVICE9.CPP
^C:\USERS\NICEL\DESKTOP\GAMMA RECODE\CSGOCHEAT\IMCONSOLE.CPP
/c /Zi /nologo /W0 /WX- /diagnostics:classic /sdl- /Od /Oi /Oy- /D WIN32 /D NDEBUG /D ANTARIO_EXPORTS /D _WINDOWS /D _USRDLL /D _WINDLL /D _MBCS /Gm- /EHsc /MD /GS /Gy /fp:precise /Zc:wchar_t /Zc:forScope /Zc:inline /std:c++latest /Fo"C:\USERS\NICEL\DESKTOP\GAMMA RECODE\BIN\WIN32\RELEASE\\" /Fd"C:\USERS\NICEL\DESKTOP\GAMMA RECODE\BIN\WIN32\RELEASE\VC141.PDB" /Gd /TP /analyze- /FC C:\USERS\NICEL\DESKTOP\GAMMA RECODE\CSGOCHEAT\IMCONSOLE.CPP
^C:\USERS\NICEL\DESKTOP\GAMMA RECODE\CSGOCHEAT\IMGUI\DX9\IMGUI_IMPL_DX9.CPP
/c /Zi /nologo /W0 /WX- /diagnostics:classic /sdl- /Od /Oi /Oy- /D WIN32 /D NDEBUG /D ANTARIO_EXPORTS /D _WINDOWS /D _USRDLL /D _WINDLL /D _MBCS /Gm- /EHsc /MD /GS /Gy /fp:precise /Zc:wchar_t /Zc:forScope /Zc:inline /std:c++latest /Fo"C:\USERS\NICEL\DESKTOP\GAMMA RECODE\BIN\WIN32\RELEASE\\" /Fd"C:\USERS\NICEL\DESKTOP\GAMMA RECODE\BIN\WIN32\RELEASE\VC141.PDB" /Gd /TP /analyze- /FC C:\USERS\NICEL\DESKTOP\GAMMA RECODE\CSGOCHEAT\IMGUI\DX9\IMGUI_IMPL_DX9.CPP
^C:\USERS\NICEL\DESKTOP\GAMMA RECODE\CSGOCHEAT\IMGUI\IMGUI.CPP
/c /Zi /nologo /W0 /WX- /diagnostics:classic /sdl- /Od /Oi /Oy- /D WIN32 /D NDEBUG /D ANTARIO_EXPORTS /D _WINDOWS /D _USRDLL /D _WINDLL /D _MBCS /Gm- /EHsc /MD /GS /Gy /fp:precise /Zc:wchar_t /Zc:forScope /Zc:inline /std:c++latest /Fo"C:\USERS\NICEL\DESKTOP\GAMMA RECODE\BIN\WIN32\RELEASE\\" /Fd"C:\USERS\NICEL\DESKTOP\GAMMA RECODE\BIN\WIN32\RELEASE\VC141.PDB" /Gd /TP /analyze- /FC C:\USERS\NICEL\DESKTOP\GAMMA RECODE\CSGOCHEAT\IMGUI\IMGUI.CPP
^C:\USERS\NICEL\DESKTOP\GAMMA RECODE\CSGOCHEAT\IMGUI\IMGUI_DRAW.CPP
/c /Zi /nologo /W0 /WX- /diagnostics:classic /sdl- /Od /Oi /Oy- /D WIN32 /D NDEBUG /D ANTARIO_EXPORTS /D _WINDOWS /D _USRDLL /D _WINDLL /D _MBCS /Gm- /EHsc /MD /GS /Gy /fp:precise /Zc:wchar_t /Zc:forScope /Zc:inline /std:c++latest /Fo"C:\USERS\NICEL\DESKTOP\GAMMA RECODE\BIN\WIN32\RELEASE\\" /Fd"C:\USERS\NICEL\DESKTOP\GAMMA RECODE\BIN\WIN32\RELEASE\VC141.PDB" /Gd /TP /analyze- /FC C:\USERS\NICEL\DESKTOP\GAMMA RECODE\CSGOCHEAT\IMGUI\IMGUI_DRAW.CPP
^C:\USERS\NICEL\DESKTOP\GAMMA RECODE\CSGOCHEAT\IMGUI\IMGUI_WIDGETS.CPP
/c /Zi /nologo /W0 /WX- /diagnostics:classic /sdl- /Od /Oi /Oy- /D WIN32 /D NDEBUG /D ANTARIO_EXPORTS /D _WINDOWS /D _USRDLL /D _WINDLL /D _MBCS /Gm- /EHsc /MD /GS /Gy /fp:precise /Zc:wchar_t /Zc:forScope /Zc:inline /std:c++latest /Fo"C:\USERS\NICEL\DESKTOP\GAMMA RECODE\BIN\WIN32\RELEASE\\" /Fd"C:\USERS\NICEL\DESKTOP\GAMMA RECODE\BIN\WIN32\RELEASE\VC141.PDB" /Gd /TP /analyze- /FC C:\USERS\NICEL\DESKTOP\GAMMA RECODE\CSGOCHEAT\IMGUI\IMGUI_WIDGETS.CPP
^C:\USERS\NICEL\DESKTOP\GAMMA RECODE\CSGOCHEAT\LUAAPI.CPP
/c /Zi /nologo /W0 /WX- /diagnostics:classic /sdl- /Od /Oi /Oy- /D WIN32 /D NDEBUG /D ANTARIO_EXPORTS /D _WINDOWS /D _USRDLL /D _WINDLL /D _MBCS /Gm- /EHsc /MD /GS /Gy /fp:precise /Zc:wchar_t /Zc:forScope /Zc:inline /std:c++latest /Fo"C:\USERS\NICEL\DESKTOP\GAMMA RECODE\BIN\WIN32\RELEASE\\" /Fd"C:\USERS\NICEL\DESKTOP\GAMMA RECODE\BIN\WIN32\RELEASE\VC141.PDB" /Gd /TP /analyze- /FC C:\USERS\NICEL\DESKTOP\GAMMA RECODE\CSGOCHEAT\LUAAPI.CPP
^C:\USERS\NICEL\DESKTOP\GAMMA RECODE\CSGOCHEAT\MENU\C_MENU.CPP
/c /Zi /nologo /W0 /WX- /diagnostics:classic /sdl- /Od /Oi /Oy- /D WIN32 /D NDEBUG /D ANTARIO_EXPORTS /D _WINDOWS /D _USRDLL /D _WINDLL /D _MBCS /Gm- /EHsc /MD /GS /Gy /fp:precise /Zc:wchar_t /Zc:forScope /Zc:inline /std:c++latest /Fo"C:\USERS\NICEL\DESKTOP\GAMMA RECODE\BIN\WIN32\RELEASE\\" /Fd"C:\USERS\NICEL\DESKTOP\GAMMA RECODE\BIN\WIN32\RELEASE\VC141.PDB" /Gd /TP /analyze- /FC C:\USERS\NICEL\DESKTOP\GAMMA RECODE\CSGOCHEAT\MENU\C_MENU.CPP
^C:\USERS\NICEL\DESKTOP\GAMMA RECODE\CSGOCHEAT\MENU\FRAMEWORK\C_BUTTON.CPP
/c /Zi /nologo /W0 /WX- /diagnostics:classic /sdl- /Od /Oi /Oy- /D WIN32 /D NDEBUG /D ANTARIO_EXPORTS /D _WINDOWS /D _USRDLL /D _WINDLL /D _MBCS /Gm- /EHsc /MD /GS /Gy /fp:precise /Zc:wchar_t /Zc:forScope /Zc:inline /std:c++latest /Fo"C:\USERS\NICEL\DESKTOP\GAMMA RECODE\BIN\WIN32\RELEASE\\" /Fd"C:\USERS\NICEL\DESKTOP\GAMMA RECODE\BIN\WIN32\RELEASE\VC141.PDB" /Gd /TP /analyze- /FC C:\USERS\NICEL\DESKTOP\GAMMA RECODE\CSGOCHEAT\MENU\FRAMEWORK\C_BUTTON.CPP
^C:\USERS\NICEL\DESKTOP\GAMMA RECODE\CSGOCHEAT\MENU\FRAMEWORK\C_CHECKBOX.CPP
/c /Zi /nologo /W0 /WX- /diagnostics:classic /sdl- /Od /Oi /Oy- /D WIN32 /D NDEBUG /D ANTARIO_EXPORTS /D _WINDOWS /D _USRDLL /D _WINDLL /D _MBCS /Gm- /EHsc /MD /GS /Gy /fp:precise /Zc:wchar_t /Zc:forScope /Zc:inline /std:c++latest /Fo"C:\USERS\NICEL\DESKTOP\GAMMA RECODE\BIN\WIN32\RELEASE\\" /Fd"C:\USERS\NICEL\DESKTOP\GAMMA RECODE\BIN\WIN32\RELEASE\VC141.PDB" /Gd /TP /analyze- /FC C:\USERS\NICEL\DESKTOP\GAMMA RECODE\CSGOCHEAT\MENU\FRAMEWORK\C_CHECKBOX.CPP
^C:\USERS\NICEL\DESKTOP\GAMMA RECODE\CSGOCHEAT\MENU\FRAMEWORK\C_COLOR_SELECT.CPP
/c /Zi /nologo /W0 /WX- /diagnostics:classic /sdl- /Od /Oi /Oy- /D WIN32 /D NDEBUG /D ANTARIO_EXPORTS /D _WINDOWS /D _USRDLL /D _WINDLL /D _MBCS /Gm- /EHsc /MD /GS /Gy /fp:precise /Zc:wchar_t /Zc:forScope /Zc:inline /std:c++latest /Fo"C:\USERS\NICEL\DESKTOP\GAMMA RECODE\BIN\WIN32\RELEASE\\" /Fd"C:\USERS\NICEL\DESKTOP\GAMMA RECODE\BIN\WIN32\RELEASE\VC141.PDB" /Gd /TP /analyze- /FC C:\USERS\NICEL\DESKTOP\GAMMA RECODE\CSGOCHEAT\MENU\FRAMEWORK\C_COLOR_SELECT.CPP
^C:\USERS\NICEL\DESKTOP\GAMMA RECODE\CSGOCHEAT\MENU\FRAMEWORK\C_FLOAT_SELECT.CPP
/c /Zi /nologo /W0 /WX- /diagnostics:classic /sdl- /Od /Oi /Oy- /D WIN32 /D NDEBUG /D ANTARIO_EXPORTS /D _WINDOWS /D _USRDLL /D _WINDLL /D _MBCS /Gm- /EHsc /MD /GS /Gy /fp:precise /Zc:wchar_t /Zc:forScope /Zc:inline /std:c++latest /Fo"C:\USERS\NICEL\DESKTOP\GAMMA RECODE\BIN\WIN32\RELEASE\\" /Fd"C:\USERS\NICEL\DESKTOP\GAMMA RECODE\BIN\WIN32\RELEASE\VC141.PDB" /Gd /TP /analyze- /FC C:\USERS\NICEL\DESKTOP\GAMMA RECODE\CSGOCHEAT\MENU\FRAMEWORK\C_FLOAT_SELECT.CPP
^C:\USERS\NICEL\DESKTOP\GAMMA RECODE\CSGOCHEAT\MENU\FRAMEWORK\C_FLOW_LAYOUT.CPP
/c /Zi /nologo /W0 /WX- /diagnostics:classic /sdl- /Od /Oi /Oy- /D WIN32 /D NDEBUG /D ANTARIO_EXPORTS /D _WINDOWS /D _USRDLL /D _WINDLL /D _MBCS /Gm- /EHsc /MD /GS /Gy /fp:precise /Zc:wchar_t /Zc:forScope /Zc:inline /std:c++latest /Fo"C:\USERS\NICEL\DESKTOP\GAMMA RECODE\BIN\WIN32\RELEASE\\" /Fd"C:\USERS\NICEL\DESKTOP\GAMMA RECODE\BIN\WIN32\RELEASE\VC141.PDB" /Gd /TP /analyze- /FC C:\USERS\NICEL\DESKTOP\GAMMA RECODE\CSGOCHEAT\MENU\FRAMEWORK\C_FLOW_LAYOUT.CPP
^C:\USERS\NICEL\DESKTOP\GAMMA RECODE\CSGOCHEAT\MENU\FRAMEWORK\C_GROUP_BOX.CPP
/c /Zi /nologo /W0 /WX- /diagnostics:classic /sdl- /Od /Oi /Oy- /D WIN32 /D NDEBUG /D ANTARIO_EXPORTS /D _WINDOWS /D _USRDLL /D _WINDLL /D _MBCS /Gm- /EHsc /MD /GS /Gy /fp:precise /Zc:wchar_t /Zc:forScope /Zc:inline /std:c++latest /Fo"C:\USERS\NICEL\DESKTOP\GAMMA RECODE\BIN\WIN32\RELEASE\\" /Fd"C:\USERS\NICEL\DESKTOP\GAMMA RECODE\BIN\WIN32\RELEASE\VC141.PDB" /Gd /TP /analyze- /FC C:\USERS\NICEL\DESKTOP\GAMMA RECODE\CSGOCHEAT\MENU\FRAMEWORK\C_GROUP_BOX.CPP
^C:\USERS\NICEL\DESKTOP\GAMMA RECODE\CSGOCHEAT\MENU\FRAMEWORK\C_HOTKEY_SELECT.CPP
/c /Zi /nologo /W0 /WX- /diagnostics:classic /sdl- /Od /Oi /Oy- /D WIN32 /D NDEBUG /D ANTARIO_EXPORTS /D _WINDOWS /D _USRDLL /D _WINDLL /D _MBCS /Gm- /EHsc /MD /GS /Gy /fp:precise /Zc:wchar_t /Zc:forScope /Zc:inline /std:c++latest /Fo"C:\USERS\NICEL\DESKTOP\GAMMA RECODE\BIN\WIN32\RELEASE\\" /Fd"C:\USERS\NICEL\DESKTOP\GAMMA RECODE\BIN\WIN32\RELEASE\VC141.PDB" /Gd /TP /analyze- /FC C:\USERS\NICEL\DESKTOP\GAMMA RECODE\CSGOCHEAT\MENU\FRAMEWORK\C_HOTKEY_SELECT.CPP
^C:\USERS\NICEL\DESKTOP\GAMMA RECODE\CSGOCHEAT\MENU\FRAMEWORK\C_IMAGE.CPP
/c /Zi /nologo /W0 /WX- /diagnostics:classic /sdl- /Od /Oi /Oy- /D WIN32 /D NDEBUG /D ANTARIO_EXPORTS /D _WINDOWS /D _USRDLL /D _WINDLL /D _MBCS /Gm- /EHsc /MD /GS /Gy /fp:precise /Zc:wchar_t /Zc:forScope /Zc:inline /std:c++latest /Fo"C:\USERS\NICEL\DESKTOP\GAMMA RECODE\BIN\WIN32\RELEASE\\" /Fd"C:\USERS\NICEL\DESKTOP\GAMMA RECODE\BIN\WIN32\RELEASE\VC141.PDB" /Gd /TP /analyze- /FC C:\USERS\NICEL\DESKTOP\GAMMA RECODE\CSGOCHEAT\MENU\FRAMEWORK\C_IMAGE.CPP
^C:\USERS\NICEL\DESKTOP\GAMMA RECODE\CSGOCHEAT\MENU\FRAMEWORK\C_NAVBAR.CPP
/c /Zi /nologo /W0 /WX- /diagnostics:classic /sdl- /Od /Oi /Oy- /D WIN32 /D NDEBUG /D ANTARIO_EXPORTS /D _WINDOWS /D _USRDLL /D _WINDLL /D _MBCS /Gm- /EHsc /MD /GS /Gy /fp:precise /Zc:wchar_t /Zc:forScope /Zc:inline /std:c++latest /Fo"C:\USERS\NICEL\DESKTOP\GAMMA RECODE\BIN\WIN32\RELEASE\\" /Fd"C:\USERS\NICEL\DESKTOP\GAMMA RECODE\BIN\WIN32\RELEASE\VC141.PDB" /Gd /TP /analyze- /FC C:\USERS\NICEL\DESKTOP\GAMMA RECODE\CSGOCHEAT\MENU\FRAMEWORK\C_NAVBAR.CPP
^C:\USERS\NICEL\DESKTOP\GAMMA RECODE\CSGOCHEAT\MENU\FRAMEWORK\C_NAVBAR_TAB.CPP
/c /Zi /nologo /W0 /WX- /diagnostics:classic /sdl- /Od /Oi /Oy- /D WIN32 /D NDEBUG /D ANTARIO_EXPORTS /D _WINDOWS /D _USRDLL /D _WINDLL /D _MBCS /Gm- /EHsc /MD /GS /Gy /fp:precise /Zc:wchar_t /Zc:forScope /Zc:inline /std:c++latest /Fo"C:\USERS\NICEL\DESKTOP\GAMMA RECODE\BIN\WIN32\RELEASE\\" /Fd"C:\USERS\NICEL\DESKTOP\GAMMA RECODE\BIN\WIN32\RELEASE\VC141.PDB" /Gd /TP /analyze- /FC C:\USERS\NICEL\DESKTOP\GAMMA RECODE\CSGOCHEAT\MENU\FRAMEWORK\C_NAVBAR_TAB.CPP
^C:\USERS\NICEL\DESKTOP\GAMMA RECODE\CSGOCHEAT\MENU\FRAMEWORK\C_ROUTER.CPP
/c /Zi /nologo /W0 /WX- /diagnostics:classic /sdl- /Od /Oi /Oy- /D WIN32 /D NDEBUG /D ANTARIO_EXPORTS /D _WINDOWS /D _USRDLL /D _WINDLL /D _MBCS /Gm- /EHsc /MD /GS /Gy /fp:precise /Zc:wchar_t /Zc:forScope /Zc:inline /std:c++latest /Fo"C:\USERS\NICEL\DESKTOP\GAMMA RECODE\BIN\WIN32\RELEASE\\" /Fd"C:\USERS\NICEL\DESKTOP\GAMMA RECODE\BIN\WIN32\RELEASE\VC141.PDB" /Gd /TP /analyze- /FC C:\USERS\NICEL\DESKTOP\GAMMA RECODE\CSGOCHEAT\MENU\FRAMEWORK\C_ROUTER.CPP
^C:\USERS\NICEL\DESKTOP\GAMMA RECODE\CSGOCHEAT\MENU\FRAMEWORK\C_SELECT.CPP
/c /Zi /nologo /W0 /WX- /diagnostics:classic /sdl- /Od /Oi /Oy- /D WIN32 /D NDEBUG /D ANTARIO_EXPORTS /D _WINDOWS /D _USRDLL /D _WINDLL /D _MBCS /Gm- /EHsc /MD /GS /Gy /fp:precise /Zc:wchar_t /Zc:forScope /Zc:inline /std:c++latest /Fo"C:\USERS\NICEL\DESKTOP\GAMMA RECODE\BIN\WIN32\RELEASE\\" /Fd"C:\USERS\NICEL\DESKTOP\GAMMA RECODE\BIN\WIN32\RELEASE\VC141.PDB" /Gd /TP /analyze- /FC C:\USERS\NICEL\DESKTOP\GAMMA RECODE\CSGOCHEAT\MENU\FRAMEWORK\C_SELECT.CPP
^C:\USERS\NICEL\DESKTOP\GAMMA RECODE\CSGOCHEAT\MENU\FRAMEWORK\C_TEXT.CPP
/c /Zi /nologo /W0 /WX- /diagnostics:classic /sdl- /Od /Oi /Oy- /D WIN32 /D NDEBUG /D ANTARIO_EXPORTS /D _WINDOWS /D _USRDLL /D _WINDLL /D _MBCS /Gm- /EHsc /MD /GS /Gy /fp:precise /Zc:wchar_t /Zc:forScope /Zc:inline /std:c++latest /Fo"C:\USERS\NICEL\DESKTOP\GAMMA RECODE\BIN\WIN32\RELEASE\\" /Fd"C:\USERS\NICEL\DESKTOP\GAMMA RECODE\BIN\WIN32\RELEASE\VC141.PDB" /Gd /TP /analyze- /FC C:\USERS\NICEL\DESKTOP\GAMMA RECODE\CSGOCHEAT\MENU\FRAMEWORK\C_TEXT.CPP
^C:\USERS\NICEL\DESKTOP\GAMMA RECODE\CSGOCHEAT\RADIOMANAGER.CPP
/c /Zi /nologo /W0 /WX- /diagnostics:classic /sdl- /Od /Oi /Oy- /D WIN32 /D NDEBUG /D ANTARIO_EXPORTS /D _WINDOWS /D _USRDLL /D _WINDLL /D _MBCS /Gm- /EHsc /MD /GS /Gy /fp:precise /Zc:wchar_t /Zc:forScope /Zc:inline /std:c++latest /Fo"C:\USERS\NICEL\DESKTOP\GAMMA RECODE\BIN\WIN32\RELEASE\\" /Fd"C:\USERS\NICEL\DESKTOP\GAMMA RECODE\BIN\WIN32\RELEASE\VC141.PDB" /Gd /TP /analyze- /FC C:\USERS\NICEL\DESKTOP\GAMMA RECODE\CSGOCHEAT\RADIOMANAGER.CPP
^C:\USERS\NICEL\DESKTOP\GAMMA RECODE\CSGOCHEAT\RENDERER\C_FONT.CPP
/c /Zi /nologo /W0 /WX- /diagnostics:classic /sdl- /Od /Oi /Oy- /D WIN32 /D NDEBUG /D ANTARIO_EXPORTS /D _WINDOWS /D _USRDLL /D _WINDLL /D _MBCS /Gm- /EHsc /MD /GS /Gy /fp:precise /Zc:wchar_t /Zc:forScope /Zc:inline /std:c++latest /Fo"C:\USERS\NICEL\DESKTOP\GAMMA RECODE\BIN\WIN32\RELEASE\\" /Fd"C:\USERS\NICEL\DESKTOP\GAMMA RECODE\BIN\WIN32\RELEASE\VC141.PDB" /Gd /TP /analyze- /FC C:\USERS\NICEL\DESKTOP\GAMMA RECODE\CSGOCHEAT\RENDERER\C_FONT.CPP
^C:\USERS\NICEL\DESKTOP\GAMMA RECODE\CSGOCHEAT\RENDERER\C_INDICATORS.CPP
/c /Zi /nologo /W0 /WX- /diagnostics:classic /sdl- /Od /Oi /Oy- /D WIN32 /D NDEBUG /D ANTARIO_EXPORTS /D _WINDOWS /D _USRDLL /D _WINDLL /D _MBCS /Gm- /EHsc /MD /GS /Gy /fp:precise /Zc:wchar_t /Zc:forScope /Zc:inline /std:c++latest /Fo"C:\USERS\NICEL\DESKTOP\GAMMA RECODE\BIN\WIN32\RELEASE\\" /Fd"C:\USERS\NICEL\DESKTOP\GAMMA RECODE\BIN\WIN32\RELEASE\VC141.PDB" /Gd /TP /analyze- /FC C:\USERS\NICEL\DESKTOP\GAMMA RECODE\CSGOCHEAT\RENDERER\C_INDICATORS.CPP
^C:\USERS\NICEL\DESKTOP\GAMMA RECODE\CSGOCHEAT\RENDERER\C_RENDERER.CPP
/c /Zi /nologo /W0 /WX- /diagnostics:classic /sdl- /Od /Oi /Oy- /D WIN32 /D NDEBUG /D ANTARIO_EXPORTS /D _WINDOWS /D _USRDLL /D _WINDLL /D _MBCS /Gm- /EHsc /MD /GS /Gy /fp:precise /Zc:wchar_t /Zc:forScope /Zc:inline /std:c++latest /Fo"C:\USERS\NICEL\DESKTOP\GAMMA RECODE\BIN\WIN32\RELEASE\\" /Fd"C:\USERS\NICEL\DESKTOP\GAMMA RECODE\BIN\WIN32\RELEASE\VC141.PDB" /Gd /TP /analyze- /FC C:\USERS\NICEL\DESKTOP\GAMMA RECODE\CSGOCHEAT\RENDERER\C_RENDERER.CPP
^C:\USERS\NICEL\DESKTOP\GAMMA RECODE\CSGOCHEAT\SDK\CTE_BLOOD.CPP
/c /Zi /nologo /W0 /WX- /diagnostics:classic /sdl- /Od /Oi /Oy- /D WIN32 /D NDEBUG /D ANTARIO_EXPORTS /D _WINDOWS /D _USRDLL /D _WINDLL /D _MBCS /Gm- /EHsc /MD /GS /Gy /fp:precise /Zc:wchar_t /Zc:forScope /Zc:inline /std:c++latest /Fo"C:\USERS\NICEL\DESKTOP\GAMMA RECODE\BIN\WIN32\RELEASE\\" /Fd"C:\USERS\NICEL\DESKTOP\GAMMA RECODE\BIN\WIN32\RELEASE\VC141.PDB" /Gd /TP /analyze- /FC C:\USERS\NICEL\DESKTOP\GAMMA RECODE\CSGOCHEAT\SDK\CTE_BLOOD.CPP
^C:\USERS\NICEL\DESKTOP\GAMMA RECODE\CSGOCHEAT\SDK\C_BASE_COMBAT_WEAPON.CPP
/c /Zi /nologo /W0 /WX- /diagnostics:classic /sdl- /Od /Oi /Oy- /D WIN32 /D NDEBUG /D ANTARIO_EXPORTS /D _WINDOWS /D _USRDLL /D _WINDLL /D _MBCS /Gm- /EHsc /MD /GS /Gy /fp:precise /Zc:wchar_t /Zc:forScope /Zc:inline /std:c++latest /Fo"C:\USERS\NICEL\DESKTOP\GAMMA RECODE\BIN\WIN32\RELEASE\\" /Fd"C:\USERS\NICEL\DESKTOP\GAMMA RECODE\BIN\WIN32\RELEASE\VC141.PDB" /Gd /TP /analyze- /FC C:\USERS\NICEL\DESKTOP\GAMMA RECODE\CSGOCHEAT\SDK\C_BASE_COMBAT_WEAPON.CPP
^C:\USERS\NICEL\DESKTOP\GAMMA RECODE\CSGOCHEAT\SDK\C_BLOOD_PREDIC.CPP
/c /Zi /nologo /W0 /WX- /diagnostics:classic /sdl- /Od /Oi /Oy- /D WIN32 /D NDEBUG /D ANTARIO_EXPORTS /D _WINDOWS /D _USRDLL /D _WINDLL /D _MBCS /Gm- /EHsc /MD /GS /Gy /fp:precise /Zc:wchar_t /Zc:forScope /Zc:inline /std:c++latest /Fo"C:\USERS\NICEL\DESKTOP\GAMMA RECODE\BIN\WIN32\RELEASE\\" /Fd"C:\USERS\NICEL\DESKTOP\GAMMA RECODE\BIN\WIN32\RELEASE\VC141.PDB" /Gd /TP /analyze- /FC C:\USERS\NICEL\DESKTOP\GAMMA RECODE\CSGOCHEAT\SDK\C_BLOOD_PREDIC.CPP
^C:\USERS\NICEL\DESKTOP\GAMMA RECODE\CSGOCHEAT\SDK\C_COLOR.CPP
/c /Zi /nologo /W0 /WX- /diagnostics:classic /sdl- /Od /Oi /Oy- /D WIN32 /D NDEBUG /D ANTARIO_EXPORTS /D _WINDOWS /D _USRDLL /D _WINDLL /D _MBCS /Gm- /EHsc /MD /GS /Gy /fp:precise /Zc:wchar_t /Zc:forScope /Zc:inline /std:c++latest /Fo"C:\USERS\NICEL\DESKTOP\GAMMA RECODE\BIN\WIN32\RELEASE\\" /Fd"C:\USERS\NICEL\DESKTOP\GAMMA RECODE\BIN\WIN32\RELEASE\VC141.PDB" /Gd /TP /analyze- /FC C:\USERS\NICEL\DESKTOP\GAMMA RECODE\CSGOCHEAT\SDK\C_COLOR.CPP
^C:\USERS\NICEL\DESKTOP\GAMMA RECODE\CSGOCHEAT\SDK\C_CS_PLAYER.CPP
/c /Zi /nologo /W0 /WX- /diagnostics:classic /sdl- /Od /Oi /Oy- /D WIN32 /D NDEBUG /D ANTARIO_EXPORTS /D _WINDOWS /D _USRDLL /D _WINDLL /D _MBCS /Gm- /EHsc /MD /GS /Gy /fp:precise /Zc:wchar_t /Zc:forScope /Zc:inline /std:c++latest /Fo"C:\USERS\NICEL\DESKTOP\GAMMA RECODE\BIN\WIN32\RELEASE\\" /Fd"C:\USERS\NICEL\DESKTOP\GAMMA RECODE\BIN\WIN32\RELEASE\VC141.PDB" /Gd /TP /analyze- /FC C:\USERS\NICEL\DESKTOP\GAMMA RECODE\CSGOCHEAT\SDK\C_CS_PLAYER.CPP
^C:\USERS\NICEL\DESKTOP\GAMMA RECODE\CSGOCHEAT\SDK\C_GLOBAL_VARS_BASE.CPP
/c /Zi /nologo /W0 /WX- /diagnostics:classic /sdl- /Od /Oi /Oy- /D WIN32 /D NDEBUG /D ANTARIO_EXPORTS /D _WINDOWS /D _USRDLL /D _WINDLL /D _MBCS /Gm- /EHsc /MD /GS /Gy /fp:precise /Zc:wchar_t /Zc:forScope /Zc:inline /std:c++latest /Fo"C:\USERS\NICEL\DESKTOP\GAMMA RECODE\BIN\WIN32\RELEASE\\" /Fd"C:\USERS\NICEL\DESKTOP\GAMMA RECODE\BIN\WIN32\RELEASE\VC141.PDB" /Gd /TP /analyze- /FC C:\USERS\NICEL\DESKTOP\GAMMA RECODE\CSGOCHEAT\SDK\C_GLOBAL_VARS_BASE.CPP
^C:\USERS\NICEL\DESKTOP\GAMMA RECODE\CSGOCHEAT\SDK\C_GLOW_OBJECT_MANAGER.CPP
/c /Zi /nologo /W0 /WX- /diagnostics:classic /sdl- /Od /Oi /Oy- /D WIN32 /D NDEBUG /D ANTARIO_EXPORTS /D _WINDOWS /D _USRDLL /D _WINDLL /D _MBCS /Gm- /EHsc /MD /GS /Gy /fp:precise /Zc:wchar_t /Zc:forScope /Zc:inline /std:c++latest /Fo"C:\USERS\NICEL\DESKTOP\GAMMA RECODE\BIN\WIN32\RELEASE\\" /Fd"C:\USERS\NICEL\DESKTOP\GAMMA RECODE\BIN\WIN32\RELEASE\VC141.PDB" /Gd /TP /analyze- /FC C:\USERS\NICEL\DESKTOP\GAMMA RECODE\CSGOCHEAT\SDK\C_GLOW_OBJECT_MANAGER.CPP
^C:\USERS\NICEL\DESKTOP\GAMMA RECODE\CSGOCHEAT\SECURITY\FNV1A.CPP
/c /Zi /nologo /W0 /WX- /diagnostics:classic /sdl- /Od /Oi /Oy- /D WIN32 /D NDEBUG /D ANTARIO_EXPORTS /D _WINDOWS /D _USRDLL /D _WINDLL /D _MBCS /Gm- /EHsc /MD /GS /Gy /fp:precise /Zc:wchar_t /Zc:forScope /Zc:inline /std:c++latest /Fo"C:\USERS\NICEL\DESKTOP\GAMMA RECODE\BIN\WIN32\RELEASE\\" /Fd"C:\USERS\NICEL\DESKTOP\GAMMA RECODE\BIN\WIN32\RELEASE\VC141.PDB" /Gd /TP /analyze- /FC C:\USERS\NICEL\DESKTOP\GAMMA RECODE\CSGOCHEAT\SECURITY\FNV1A.CPP
^C:\USERS\NICEL\DESKTOP\GAMMA RECODE\CSGOCHEAT\SOUNDS\COD.CPP
/c /Zi /nologo /W0 /WX- /diagnostics:classic /sdl- /Od /Oi /Oy- /D WIN32 /D NDEBUG /D ANTARIO_EXPORTS /D _WINDOWS /D _USRDLL /D _WINDLL /D _MBCS /Gm- /EHsc /MD /GS /Gy /fp:precise /Zc:wchar_t /Zc:forScope /Zc:inline /std:c++latest /Fo"C:\USERS\NICEL\DESKTOP\GAMMA RECODE\BIN\WIN32\RELEASE\\" /Fd"C:\USERS\NICEL\DESKTOP\GAMMA RECODE\BIN\WIN32\RELEASE\VC141.PDB" /Gd /TP /analyze- /FC C:\USERS\NICEL\DESKTOP\GAMMA RECODE\CSGOCHEAT\SOUNDS\COD.CPP
^C:\USERS\NICEL\DESKTOP\GAMMA RECODE\CSGOCHEAT\SOUNDS\SOUNDS.CPP
/c /Zi /nologo /W0 /WX- /diagnostics:classic /sdl- /Od /Oi /Oy- /D WIN32 /D NDEBUG /D ANTARIO_EXPORTS /D _WINDOWS /D _USRDLL /D _WINDLL /D _MBCS /Gm- /EHsc /MD /GS /Gy /fp:precise /Zc:wchar_t /Zc:forScope /Zc:inline /std:c++latest /Fo"C:\USERS\NICEL\DESKTOP\GAMMA RECODE\BIN\WIN32\RELEASE\\" /Fd"C:\USERS\NICEL\DESKTOP\GAMMA RECODE\BIN\WIN32\RELEASE\VC141.PDB" /Gd /TP /analyze- /FC C:\USERS\NICEL\DESKTOP\GAMMA RECODE\CSGOCHEAT\SOUNDS\SOUNDS.CPP
^C:\USERS\NICEL\DESKTOP\GAMMA RECODE\CSGOCHEAT\TEXTEDITOR.CPP
/c /Zi /nologo /W0 /WX- /diagnostics:classic /sdl- /Od /Oi /Oy- /D WIN32 /D NDEBUG /D ANTARIO_EXPORTS /D _WINDOWS /D _USRDLL /D _WINDLL /D _MBCS /Gm- /EHsc /MD /GS /Gy /fp:precise /Zc:wchar_t /Zc:forScope /Zc:inline /std:c++latest /Fo"C:\USERS\NICEL\DESKTOP\GAMMA RECODE\BIN\WIN32\RELEASE\\" /Fd"C:\USERS\NICEL\DESKTOP\GAMMA RECODE\BIN\WIN32\RELEASE\VC141.PDB" /Gd /TP /analyze- /FC C:\USERS\NICEL\DESKTOP\GAMMA RECODE\CSGOCHEAT\TEXTEDITOR.CPP
^C:\USERS\NICEL\DESKTOP\GAMMA RECODE\CSGOCHEAT\UTILS\C_HOTKEYS.CPP
/c /Zi /nologo /W0 /WX- /diagnostics:classic /sdl- /Od /Oi /Oy- /D WIN32 /D NDEBUG /D ANTARIO_EXPORTS /D _WINDOWS /D _USRDLL /D _WINDLL /D _MBCS /Gm- /EHsc /MD /GS /Gy /fp:precise /Zc:wchar_t /Zc:forScope /Zc:inline /std:c++latest /Fo"C:\USERS\NICEL\DESKTOP\GAMMA RECODE\BIN\WIN32\RELEASE\\" /Fd"C:\USERS\NICEL\DESKTOP\GAMMA RECODE\BIN\WIN32\RELEASE\VC141.PDB" /Gd /TP /analyze- /FC C:\USERS\NICEL\DESKTOP\GAMMA RECODE\CSGOCHEAT\UTILS\C_HOTKEYS.CPP
^C:\USERS\NICEL\DESKTOP\GAMMA RECODE\CSGOCHEAT\UTILS\C_NETVAR.CPP
/c /Zi /nologo /W0 /WX- /diagnostics:classic /sdl- /Od /Oi /Oy- /D WIN32 /D NDEBUG /D ANTARIO_EXPORTS /D _WINDOWS /D _USRDLL /D _WINDLL /D _MBCS /Gm- /EHsc /MD /GS /Gy /fp:precise /Zc:wchar_t /Zc:forScope /Zc:inline /std:c++latest /Fo"C:\USERS\NICEL\DESKTOP\GAMMA RECODE\BIN\WIN32\RELEASE\\" /Fd"C:\USERS\NICEL\DESKTOP\GAMMA RECODE\BIN\WIN32\RELEASE\VC141.PDB" /Gd /TP /analyze- /FC C:\USERS\NICEL\DESKTOP\GAMMA RECODE\CSGOCHEAT\UTILS\C_NETVAR.CPP
^C:\USERS\NICEL\DESKTOP\GAMMA RECODE\CSGOCHEAT\LUA\LAPI.C
/c /Zi /nologo /W0 /WX- /diagnostics:classic /sdl- /Od /Oi /Oy- /D WIN32 /D NDEBUG /D ANTARIO_EXPORTS /D _WINDOWS /D _USRDLL /D _WINDLL /D _MBCS /Gm- /EHsc /MD /GS /Gy /fp:precise /Zc:wchar_t /Zc:forScope /Zc:inline /std:c++latest /Fo"C:\USERS\NICEL\DESKTOP\GAMMA RECODE\BIN\WIN32\RELEASE\\" /Fd"C:\USERS\NICEL\DESKTOP\GAMMA RECODE\BIN\WIN32\RELEASE\VC141.PDB" /Gd /TC /analyze- /FC C:\USERS\NICEL\DESKTOP\GAMMA RECODE\CSGOCHEAT\LUA\LAPI.C
^C:\USERS\NICEL\DESKTOP\GAMMA RECODE\CSGOCHEAT\LUA\LAUXLIB.C
/c /Zi /nologo /W0 /WX- /diagnostics:classic /sdl- /Od /Oi /Oy- /D WIN32 /D NDEBUG /D ANTARIO_EXPORTS /D _WINDOWS /D _USRDLL /D _WINDLL /D _MBCS /Gm- /EHsc /MD /GS /Gy /fp:precise /Zc:wchar_t /Zc:forScope /Zc:inline /std:c++latest /Fo"C:\USERS\NICEL\DESKTOP\GAMMA RECODE\BIN\WIN32\RELEASE\\" /Fd"C:\USERS\NICEL\DESKTOP\GAMMA RECODE\BIN\WIN32\RELEASE\VC141.PDB" /Gd /TC /analyze- /FC C:\USERS\NICEL\DESKTOP\GAMMA RECODE\CSGOCHEAT\LUA\LAUXLIB.C
^C:\USERS\NICEL\DESKTOP\GAMMA RECODE\CSGOCHEAT\LUA\LBASELIB.C
/c /Zi /nologo /W0 /WX- /diagnostics:classic /sdl- /Od /Oi /Oy- /D WIN32 /D NDEBUG /D ANTARIO_EXPORTS /D _WINDOWS /D _USRDLL /D _WINDLL /D _MBCS /Gm- /EHsc /MD /GS /Gy /fp:precise /Zc:wchar_t /Zc:forScope /Zc:inline /std:c++latest /Fo"C:\USERS\NICEL\DESKTOP\GAMMA RECODE\BIN\WIN32\RELEASE\\" /Fd"C:\USERS\NICEL\DESKTOP\GAMMA RECODE\BIN\WIN32\RELEASE\VC141.PDB" /Gd /TC /analyze- /FC C:\USERS\NICEL\DESKTOP\GAMMA RECODE\CSGOCHEAT\LUA\LBASELIB.C
^C:\USERS\NICEL\DESKTOP\GAMMA RECODE\CSGOCHEAT\LUA\LBITLIB.C
/c /Zi /nologo /W0 /WX- /diagnostics:classic /sdl- /Od /Oi /Oy- /D WIN32 /D NDEBUG /D ANTARIO_EXPORTS /D _WINDOWS /D _USRDLL /D _WINDLL /D _MBCS /Gm- /EHsc /MD /GS /Gy /fp:precise /Zc:wchar_t /Zc:forScope /Zc:inline /std:c++latest /Fo"C:\USERS\NICEL\DESKTOP\GAMMA RECODE\BIN\WIN32\RELEASE\\" /Fd"C:\USERS\NICEL\DESKTOP\GAMMA RECODE\BIN\WIN32\RELEASE\VC141.PDB" /Gd /TC /analyze- /FC C:\USERS\NICEL\DESKTOP\GAMMA RECODE\CSGOCHEAT\LUA\LBITLIB.C
^C:\USERS\NICEL\DESKTOP\GAMMA RECODE\CSGOCHEAT\LUA\LCODE.C
/c /Zi /nologo /W0 /WX- /diagnostics:classic /sdl- /Od /Oi /Oy- /D WIN32 /D NDEBUG /D ANTARIO_EXPORTS /D _WINDOWS /D _USRDLL /D _WINDLL /D _MBCS /Gm- /EHsc /MD /GS /Gy /fp:precise /Zc:wchar_t /Zc:forScope /Zc:inline /std:c++latest /Fo"C:\USERS\NICEL\DESKTOP\GAMMA RECODE\BIN\WIN32\RELEASE\\" /Fd"C:\USERS\NICEL\DESKTOP\GAMMA RECODE\BIN\WIN32\RELEASE\VC141.PDB" /Gd /TC /analyze- /FC C:\USERS\NICEL\DESKTOP\GAMMA RECODE\CSGOCHEAT\LUA\LCODE.C
^C:\USERS\NICEL\DESKTOP\GAMMA RECODE\CSGOCHEAT\LUA\LCOROLIB.C
/c /Zi /nologo /W0 /WX- /diagnostics:classic /sdl- /Od /Oi /Oy- /D WIN32 /D NDEBUG /D ANTARIO_EXPORTS /D _WINDOWS /D _USRDLL /D _WINDLL /D _MBCS /Gm- /EHsc /MD /GS /Gy /fp:precise /Zc:wchar_t /Zc:forScope /Zc:inline /std:c++latest /Fo"C:\USERS\NICEL\DESKTOP\GAMMA RECODE\BIN\WIN32\RELEASE\\" /Fd"C:\USERS\NICEL\DESKTOP\GAMMA RECODE\BIN\WIN32\RELEASE\VC141.PDB" /Gd /TC /analyze- /FC C:\USERS\NICEL\DESKTOP\GAMMA RECODE\CSGOCHEAT\LUA\LCOROLIB.C
^C:\USERS\NICEL\DESKTOP\GAMMA RECODE\CSGOCHEAT\LUA\LCTYPE.C
/c /Zi /nologo /W0 /WX- /diagnostics:classic /sdl- /Od /Oi /Oy- /D WIN32 /D NDEBUG /D ANTARIO_EXPORTS /D _WINDOWS /D _USRDLL /D _WINDLL /D _MBCS /Gm- /EHsc /MD /GS /Gy /fp:precise /Zc:wchar_t /Zc:forScope /Zc:inline /std:c++latest /Fo"C:\USERS\NICEL\DESKTOP\GAMMA RECODE\BIN\WIN32\RELEASE\\" /Fd"C:\USERS\NICEL\DESKTOP\GAMMA RECODE\BIN\WIN32\RELEASE\VC141.PDB" /Gd /TC /analyze- /FC C:\USERS\NICEL\DESKTOP\GAMMA RECODE\CSGOCHEAT\LUA\LCTYPE.C
^C:\USERS\NICEL\DESKTOP\GAMMA RECODE\CSGOCHEAT\LUA\LDBLIB.C
/c /Zi /nologo /W0 /WX- /diagnostics:classic /sdl- /Od /Oi /Oy- /D WIN32 /D NDEBUG /D ANTARIO_EXPORTS /D _WINDOWS /D _USRDLL /D _WINDLL /D _MBCS /Gm- /EHsc /MD /GS /Gy /fp:precise /Zc:wchar_t /Zc:forScope /Zc:inline /std:c++latest /Fo"C:\USERS\NICEL\DESKTOP\GAMMA RECODE\BIN\WIN32\RELEASE\\" /Fd"C:\USERS\NICEL\DESKTOP\GAMMA RECODE\BIN\WIN32\RELEASE\VC141.PDB" /Gd /TC /analyze- /FC C:\USERS\NICEL\DESKTOP\GAMMA RECODE\CSGOCHEAT\LUA\LDBLIB.C
^C:\USERS\NICEL\DESKTOP\GAMMA RECODE\CSGOCHEAT\LUA\LDEBUG.C
/c /Zi /nologo /W0 /WX- /diagnostics:classic /sdl- /Od /Oi /Oy- /D WIN32 /D NDEBUG /D ANTARIO_EXPORTS /D _WINDOWS /D _USRDLL /D _WINDLL /D _MBCS /Gm- /EHsc /MD /GS /Gy /fp:precise /Zc:wchar_t /Zc:forScope /Zc:inline /std:c++latest /Fo"C:\USERS\NICEL\DESKTOP\GAMMA RECODE\BIN\WIN32\RELEASE\\" /Fd"C:\USERS\NICEL\DESKTOP\GAMMA RECODE\BIN\WIN32\RELEASE\VC141.PDB" /Gd /TC /analyze- /FC C:\USERS\NICEL\DESKTOP\GAMMA RECODE\CSGOCHEAT\LUA\LDEBUG.C
^C:\USERS\NICEL\DESKTOP\GAMMA RECODE\CSGOCHEAT\LUA\LDO.C
/c /Zi /nologo /W0 /WX- /diagnostics:classic /sdl- /Od /Oi /Oy- /D WIN32 /D NDEBUG /D ANTARIO_EXPORTS /D _WINDOWS /D _USRDLL /D _WINDLL /D _MBCS /Gm- /EHsc /MD /GS /Gy /fp:precise /Zc:wchar_t /Zc:forScope /Zc:inline /std:c++latest /Fo"C:\USERS\NICEL\DESKTOP\GAMMA RECODE\BIN\WIN32\RELEASE\\" /Fd"C:\USERS\NICEL\DESKTOP\GAMMA RECODE\BIN\WIN32\RELEASE\VC141.PDB" /Gd /TC /analyze- /FC C:\USERS\NICEL\DESKTOP\GAMMA RECODE\CSGOCHEAT\LUA\LDO.C
^C:\USERS\NICEL\DESKTOP\GAMMA RECODE\CSGOCHEAT\LUA\LDUMP.C
/c /Zi /nologo /W0 /WX- /diagnostics:classic /sdl- /Od /Oi /Oy- /D WIN32 /D NDEBUG /D ANTARIO_EXPORTS /D _WINDOWS /D _USRDLL /D _WINDLL /D _MBCS /Gm- /EHsc /MD /GS /Gy /fp:precise /Zc:wchar_t /Zc:forScope /Zc:inline /std:c++latest /Fo"C:\USERS\NICEL\DESKTOP\GAMMA RECODE\BIN\WIN32\RELEASE\\" /Fd"C:\USERS\NICEL\DESKTOP\GAMMA RECODE\BIN\WIN32\RELEASE\VC141.PDB" /Gd /TC /analyze- /FC C:\USERS\NICEL\DESKTOP\GAMMA RECODE\CSGOCHEAT\LUA\LDUMP.C
^C:\USERS\NICEL\DESKTOP\GAMMA RECODE\CSGOCHEAT\LUA\LFUNC.C
/c /Zi /nologo /W0 /WX- /diagnostics:classic /sdl- /Od /Oi /Oy- /D WIN32 /D NDEBUG /D ANTARIO_EXPORTS /D _WINDOWS /D _USRDLL /D _WINDLL /D _MBCS /Gm- /EHsc /MD /GS /Gy /fp:precise /Zc:wchar_t /Zc:forScope /Zc:inline /std:c++latest /Fo"C:\USERS\NICEL\DESKTOP\GAMMA RECODE\BIN\WIN32\RELEASE\\" /Fd"C:\USERS\NICEL\DESKTOP\GAMMA RECODE\BIN\WIN32\RELEASE\VC141.PDB" /Gd /TC /analyze- /FC C:\USERS\NICEL\DESKTOP\GAMMA RECODE\CSGOCHEAT\LUA\LFUNC.C
^C:\USERS\NICEL\DESKTOP\GAMMA RECODE\CSGOCHEAT\LUA\LGC.C
/c /Zi /nologo /W0 /WX- /diagnostics:classic /sdl- /Od /Oi /Oy- /D WIN32 /D NDEBUG /D ANTARIO_EXPORTS /D _WINDOWS /D _USRDLL /D _WINDLL /D _MBCS /Gm- /EHsc /MD /GS /Gy /fp:precise /Zc:wchar_t /Zc:forScope /Zc:inline /std:c++latest /Fo"C:\USERS\NICEL\DESKTOP\GAMMA RECODE\BIN\WIN32\RELEASE\\" /Fd"C:\USERS\NICEL\DESKTOP\GAMMA RECODE\BIN\WIN32\RELEASE\VC141.PDB" /Gd /TC /analyze- /FC C:\USERS\NICEL\DESKTOP\GAMMA RECODE\CSGOCHEAT\LUA\LGC.C
^C:\USERS\NICEL\DESKTOP\GAMMA RECODE\CSGOCHEAT\LUA\LINIT.C
/c /Zi /nologo /W0 /WX- /diagnostics:classic /sdl- /Od /Oi /Oy- /D WIN32 /D NDEBUG /D ANTARIO_EXPORTS /D _WINDOWS /D _USRDLL /D _WINDLL /D _MBCS /Gm- /EHsc /MD /GS /Gy /fp:precise /Zc:wchar_t /Zc:forScope /Zc:inline /std:c++latest /Fo"C:\USERS\NICEL\DESKTOP\GAMMA RECODE\BIN\WIN32\RELEASE\\" /Fd"C:\USERS\NICEL\DESKTOP\GAMMA RECODE\BIN\WIN32\RELEASE\VC141.PDB" /Gd /TC /analyze- /FC C:\USERS\NICEL\DESKTOP\GAMMA RECODE\CSGOCHEAT\LUA\LINIT.C
^C:\USERS\NICEL\DESKTOP\GAMMA RECODE\CSGOCHEAT\LUA\LIOLIB.C
/c /Zi /nologo /W0 /WX- /diagnostics:classic /sdl- /Od /Oi /Oy- /D WIN32 /D NDEBUG /D ANTARIO_EXPORTS /D _WINDOWS /D _USRDLL /D _WINDLL /D _MBCS /Gm- /EHsc /MD /GS /Gy /fp:precise /Zc:wchar_t /Zc:forScope /Zc:inline /std:c++latest /Fo"C:\USERS\NICEL\DESKTOP\GAMMA RECODE\BIN\WIN32\RELEASE\\" /Fd"C:\USERS\NICEL\DESKTOP\GAMMA RECODE\BIN\WIN32\RELEASE\VC141.PDB" /Gd /TC /analyze- /FC C:\USERS\NICEL\DESKTOP\GAMMA RECODE\CSGOCHEAT\LUA\LIOLIB.C
^C:\USERS\NICEL\DESKTOP\GAMMA RECODE\CSGOCHEAT\LUA\LLEX.C
/c /Zi /nologo /W0 /WX- /diagnostics:classic /sdl- /Od /Oi /Oy- /D WIN32 /D NDEBUG /D ANTARIO_EXPORTS /D _WINDOWS /D _USRDLL /D _WINDLL /D _MBCS /Gm- /EHsc /MD /GS /Gy /fp:precise /Zc:wchar_t /Zc:forScope /Zc:inline /std:c++latest /Fo"C:\USERS\NICEL\DESKTOP\GAMMA RECODE\BIN\WIN32\RELEASE\\" /Fd"C:\USERS\NICEL\DESKTOP\GAMMA RECODE\BIN\WIN32\RELEASE\VC141.PDB" /Gd /TC /analyze- /FC C:\USERS\NICEL\DESKTOP\GAMMA RECODE\CSGOCHEAT\LUA\LLEX.C
^C:\USERS\NICEL\DESKTOP\GAMMA RECODE\CSGOCHEAT\LUA\LMATHLIB.C
/c /Zi /nologo /W0 /WX- /diagnostics:classic /sdl- /Od /Oi /Oy- /D WIN32 /D NDEBUG /D ANTARIO_EXPORTS /D _WINDOWS /D _USRDLL /D _WINDLL /D _MBCS /Gm- /EHsc /MD /GS /Gy /fp:precise /Zc:wchar_t /Zc:forScope /Zc:inline /std:c++latest /Fo"C:\USERS\NICEL\DESKTOP\GAMMA RECODE\BIN\WIN32\RELEASE\\" /Fd"C:\USERS\NICEL\DESKTOP\GAMMA RECODE\BIN\WIN32\RELEASE\VC141.PDB" /Gd /TC /analyze- /FC C:\USERS\NICEL\DESKTOP\GAMMA RECODE\CSGOCHEAT\LUA\LMATHLIB.C
^C:\USERS\NICEL\DESKTOP\GAMMA RECODE\CSGOCHEAT\LUA\LMEM.C
/c /Zi /nologo /W0 /WX- /diagnostics:classic /sdl- /Od /Oi /Oy- /D WIN32 /D NDEBUG /D ANTARIO_EXPORTS /D _WINDOWS /D _USRDLL /D _WINDLL /D _MBCS /Gm- /EHsc /MD /GS /Gy /fp:precise /Zc:wchar_t /Zc:forScope /Zc:inline /std:c++latest /Fo"C:\USERS\NICEL\DESKTOP\GAMMA RECODE\BIN\WIN32\RELEASE\\" /Fd"C:\USERS\NICEL\DESKTOP\GAMMA RECODE\BIN\WIN32\RELEASE\VC141.PDB" /Gd /TC /analyze- /FC C:\USERS\NICEL\DESKTOP\GAMMA RECODE\CSGOCHEAT\LUA\LMEM.C
^C:\USERS\NICEL\DESKTOP\GAMMA RECODE\CSGOCHEAT\LUA\LOADLIB.C
/c /Zi /nologo /W0 /WX- /diagnostics:classic /sdl- /Od /Oi /Oy- /D WIN32 /D NDEBUG /D ANTARIO_EXPORTS /D _WINDOWS /D _USRDLL /D _WINDLL /D _MBCS /Gm- /EHsc /MD /GS /Gy /fp:precise /Zc:wchar_t /Zc:forScope /Zc:inline /std:c++latest /Fo"C:\USERS\NICEL\DESKTOP\GAMMA RECODE\BIN\WIN32\RELEASE\\" /Fd"C:\USERS\NICEL\DESKTOP\GAMMA RECODE\BIN\WIN32\RELEASE\VC141.PDB" /Gd /TC /analyze- /FC C:\USERS\NICEL\DESKTOP\GAMMA RECODE\CSGOCHEAT\LUA\LOADLIB.C
^C:\USERS\NICEL\DESKTOP\GAMMA RECODE\CSGOCHEAT\LUA\LOBJECT.C
/c /Zi /nologo /W0 /WX- /diagnostics:classic /sdl- /Od /Oi /Oy- /D WIN32 /D NDEBUG /D ANTARIO_EXPORTS /D _WINDOWS /D _USRDLL /D _WINDLL /D _MBCS /Gm- /EHsc /MD /GS /Gy /fp:precise /Zc:wchar_t /Zc:forScope /Zc:inline /std:c++latest /Fo"C:\USERS\NICEL\DESKTOP\GAMMA RECODE\BIN\WIN32\RELEASE\\" /Fd"C:\USERS\NICEL\DESKTOP\GAMMA RECODE\BIN\WIN32\RELEASE\VC141.PDB" /Gd /TC /analyze- /FC C:\USERS\NICEL\DESKTOP\GAMMA RECODE\CSGOCHEAT\LUA\LOBJECT.C
^C:\USERS\NICEL\DESKTOP\GAMMA RECODE\CSGOCHEAT\LUA\LOPCODES.C
/c /Zi /nologo /W0 /WX- /diagnostics:classic /sdl- /Od /Oi /Oy- /D WIN32 /D NDEBUG /D ANTARIO_EXPORTS /D _WINDOWS /D _USRDLL /D _WINDLL /D _MBCS /Gm- /EHsc /MD /GS /Gy /fp:precise /Zc:wchar_t /Zc:forScope /Zc:inline /std:c++latest /Fo"C:\USERS\NICEL\DESKTOP\GAMMA RECODE\BIN\WIN32\RELEASE\\" /Fd"C:\USERS\NICEL\DESKTOP\GAMMA RECODE\BIN\WIN32\RELEASE\VC141.PDB" /Gd /TC /analyze- /FC C:\USERS\NICEL\DESKTOP\GAMMA RECODE\CSGOCHEAT\LUA\LOPCODES.C
^C:\USERS\NICEL\DESKTOP\GAMMA RECODE\CSGOCHEAT\LUA\LOSLIB.C
/c /Zi /nologo /W0 /WX- /diagnostics:classic /sdl- /Od /Oi /Oy- /D WIN32 /D NDEBUG /D ANTARIO_EXPORTS /D _WINDOWS /D _USRDLL /D _WINDLL /D _MBCS /Gm- /EHsc /MD /GS /Gy /fp:precise /Zc:wchar_t /Zc:forScope /Zc:inline /std:c++latest /Fo"C:\USERS\NICEL\DESKTOP\GAMMA RECODE\BIN\WIN32\RELEASE\\" /Fd"C:\USERS\NICEL\DESKTOP\GAMMA RECODE\BIN\WIN32\RELEASE\VC141.PDB" /Gd /TC /analyze- /FC C:\USERS\NICEL\DESKTOP\GAMMA RECODE\CSGOCHEAT\LUA\LOSLIB.C
^C:\USERS\NICEL\DESKTOP\GAMMA RECODE\CSGOCHEAT\LUA\LPARSER.C
/c /Zi /nologo /W0 /WX- /diagnostics:classic /sdl- /Od /Oi /Oy- /D WIN32 /D NDEBUG /D ANTARIO_EXPORTS /D _WINDOWS /D _USRDLL /D _WINDLL /D _MBCS /Gm- /EHsc /MD /GS /Gy /fp:precise /Zc:wchar_t /Zc:forScope /Zc:inline /std:c++latest /Fo"C:\USERS\NICEL\DESKTOP\GAMMA RECODE\BIN\WIN32\RELEASE\\" /Fd"C:\USERS\NICEL\DESKTOP\GAMMA RECODE\BIN\WIN32\RELEASE\VC141.PDB" /Gd /TC /analyze- /FC C:\USERS\NICEL\DESKTOP\GAMMA RECODE\CSGOCHEAT\LUA\LPARSER.C
^C:\USERS\NICEL\DESKTOP\GAMMA RECODE\CSGOCHEAT\LUA\LSTATE.C
/c /Zi /nologo /W0 /WX- /diagnostics:classic /sdl- /Od /Oi /Oy- /D WIN32 /D NDEBUG /D ANTARIO_EXPORTS /D _WINDOWS /D _USRDLL /D _WINDLL /D _MBCS /Gm- /EHsc /MD /GS /Gy /fp:precise /Zc:wchar_t /Zc:forScope /Zc:inline /std:c++latest /Fo"C:\USERS\NICEL\DESKTOP\GAMMA RECODE\BIN\WIN32\RELEASE\\" /Fd"C:\USERS\NICEL\DESKTOP\GAMMA RECODE\BIN\WIN32\RELEASE\VC141.PDB" /Gd /TC /analyze- /FC C:\USERS\NICEL\DESKTOP\GAMMA RECODE\CSGOCHEAT\LUA\LSTATE.C
^C:\USERS\NICEL\DESKTOP\GAMMA RECODE\CSGOCHEAT\LUA\LSTRING.C
/c /Zi /nologo /W0 /WX- /diagnostics:classic /sdl- /Od /Oi /Oy- /D WIN32 /D NDEBUG /D ANTARIO_EXPORTS /D _WINDOWS /D _USRDLL /D _WINDLL /D _MBCS /Gm- /EHsc /MD /GS /Gy /fp:precise /Zc:wchar_t /Zc:forScope /Zc:inline /std:c++latest /Fo"C:\USERS\NICEL\DESKTOP\GAMMA RECODE\BIN\WIN32\RELEASE\\" /Fd"C:\USERS\NICEL\DESKTOP\GAMMA RECODE\BIN\WIN32\RELEASE\VC141.PDB" /Gd /TC /analyze- /FC C:\USERS\NICEL\DESKTOP\GAMMA RECODE\CSGOCHEAT\LUA\LSTRING.C
^C:\USERS\NICEL\DESKTOP\GAMMA RECODE\CSGOCHEAT\LUA\LSTRLIB.C
/c /Zi /nologo /W0 /WX- /diagnostics:classic /sdl- /Od /Oi /Oy- /D WIN32 /D NDEBUG /D ANTARIO_EXPORTS /D _WINDOWS /D _USRDLL /D _WINDLL /D _MBCS /Gm- /EHsc /MD /GS /Gy /fp:precise /Zc:wchar_t /Zc:forScope /Zc:inline /std:c++latest /Fo"C:\USERS\NICEL\DESKTOP\GAMMA RECODE\BIN\WIN32\RELEASE\\" /Fd"C:\USERS\NICEL\DESKTOP\GAMMA RECODE\BIN\WIN32\RELEASE\VC141.PDB" /Gd /TC /analyze- /FC C:\USERS\NICEL\DESKTOP\GAMMA RECODE\CSGOCHEAT\LUA\LSTRLIB.C
^C:\USERS\NICEL\DESKTOP\GAMMA RECODE\CSGOCHEAT\LUA\LTABLE.C
/c /Zi /nologo /W0 /WX- /diagnostics:classic /sdl- /Od /Oi /Oy- /D WIN32 /D NDEBUG /D ANTARIO_EXPORTS /D _WINDOWS /D _USRDLL /D _WINDLL /D _MBCS /Gm- /EHsc /MD /GS /Gy /fp:precise /Zc:wchar_t /Zc:forScope /Zc:inline /std:c++latest /Fo"C:\USERS\NICEL\DESKTOP\GAMMA RECODE\BIN\WIN32\RELEASE\\" /Fd"C:\USERS\NICEL\DESKTOP\GAMMA RECODE\BIN\WIN32\RELEASE\VC141.PDB" /Gd /TC /analyze- /FC C:\USERS\NICEL\DESKTOP\GAMMA RECODE\CSGOCHEAT\LUA\LTABLE.C
^C:\USERS\NICEL\DESKTOP\GAMMA RECODE\CSGOCHEAT\LUA\LTABLIB.C
/c /Zi /nologo /W0 /WX- /diagnostics:classic /sdl- /Od /Oi /Oy- /D WIN32 /D NDEBUG /D ANTARIO_EXPORTS /D _WINDOWS /D _USRDLL /D _WINDLL /D _MBCS /Gm- /EHsc /MD /GS /Gy /fp:precise /Zc:wchar_t /Zc:forScope /Zc:inline /std:c++latest /Fo"C:\USERS\NICEL\DESKTOP\GAMMA RECODE\BIN\WIN32\RELEASE\\" /Fd"C:\USERS\NICEL\DESKTOP\GAMMA RECODE\BIN\WIN32\RELEASE\VC141.PDB" /Gd /TC /analyze- /FC C:\USERS\NICEL\DESKTOP\GAMMA RECODE\CSGOCHEAT\LUA\LTABLIB.C
^C:\USERS\NICEL\DESKTOP\GAMMA RECODE\CSGOCHEAT\LUA\LTM.C
/c /Zi /nologo /W0 /WX- /diagnostics:classic /sdl- /Od /Oi /Oy- /D WIN32 /D NDEBUG /D ANTARIO_EXPORTS /D _WINDOWS /D _USRDLL /D _WINDLL /D _MBCS /Gm- /EHsc /MD /GS /Gy /fp:precise /Zc:wchar_t /Zc:forScope /Zc:inline /std:c++latest /Fo"C:\USERS\NICEL\DESKTOP\GAMMA RECODE\BIN\WIN32\RELEASE\\" /Fd"C:\USERS\NICEL\DESKTOP\GAMMA RECODE\BIN\WIN32\RELEASE\VC141.PDB" /Gd /TC /analyze- /FC C:\USERS\NICEL\DESKTOP\GAMMA RECODE\CSGOCHEAT\LUA\LTM.C
^C:\USERS\NICEL\DESKTOP\GAMMA RECODE\CSGOCHEAT\LUA\LUA.C
/c /Zi /nologo /W0 /WX- /diagnostics:classic /sdl- /Od /Oi /Oy- /D WIN32 /D NDEBUG /D ANTARIO_EXPORTS /D _WINDOWS /D _USRDLL /D _WINDLL /D _MBCS /Gm- /EHsc /MD /GS /Gy /fp:precise /Zc:wchar_t /Zc:forScope /Zc:inline /std:c++latest /Fo"C:\USERS\NICEL\DESKTOP\GAMMA RECODE\BIN\WIN32\RELEASE\\" /Fd"C:\USERS\NICEL\DESKTOP\GAMMA RECODE\BIN\WIN32\RELEASE\VC141.PDB" /Gd /TC /analyze- /FC C:\USERS\NICEL\DESKTOP\GAMMA RECODE\CSGOCHEAT\LUA\LUA.C
^C:\USERS\NICEL\DESKTOP\GAMMA RECODE\CSGOCHEAT\LUA\LUAC.C
/c /Zi /nologo /W0 /WX- /diagnostics:classic /sdl- /Od /Oi /Oy- /D WIN32 /D NDEBUG /D ANTARIO_EXPORTS /D _WINDOWS /D _USRDLL /D _WINDLL /D _MBCS /Gm- /EHsc /MD /GS /Gy /fp:precise /Zc:wchar_t /Zc:forScope /Zc:inline /std:c++latest /Fo"C:\USERS\NICEL\DESKTOP\GAMMA RECODE\BIN\WIN32\RELEASE\\" /Fd"C:\USERS\NICEL\DESKTOP\GAMMA RECODE\BIN\WIN32\RELEASE\VC141.PDB" /Gd /TC /analyze- /FC C:\USERS\NICEL\DESKTOP\GAMMA RECODE\CSGOCHEAT\LUA\LUAC.C
^C:\USERS\NICEL\DESKTOP\GAMMA RECODE\CSGOCHEAT\LUA\LUNDUMP.C
/c /Zi /nologo /W0 /WX- /diagnostics:classic /sdl- /Od /Oi /Oy- /D WIN32 /D NDEBUG /D ANTARIO_EXPORTS /D _WINDOWS /D _USRDLL /D _WINDLL /D _MBCS /Gm- /EHsc /MD /GS /Gy /fp:precise /Zc:wchar_t /Zc:forScope /Zc:inline /std:c++latest /Fo"C:\USERS\NICEL\DESKTOP\GAMMA RECODE\BIN\WIN32\RELEASE\\" /Fd"C:\USERS\NICEL\DESKTOP\GAMMA RECODE\BIN\WIN32\RELEASE\VC141.PDB" /Gd /TC /analyze- /FC C:\USERS\NICEL\DESKTOP\GAMMA RECODE\CSGOCHEAT\LUA\LUNDUMP.C
^C:\USERS\NICEL\DESKTOP\GAMMA RECODE\CSGOCHEAT\LUA\LUTF8LIB.C
/c /Zi /nologo /W0 /WX- /diagnostics:classic /sdl- /Od /Oi /Oy- /D WIN32 /D NDEBUG /D ANTARIO_EXPORTS /D _WINDOWS /D _USRDLL /D _WINDLL /D _MBCS /Gm- /EHsc /MD /GS /Gy /fp:precise /Zc:wchar_t /Zc:forScope /Zc:inline /std:c++latest /Fo"C:\USERS\NICEL\DESKTOP\GAMMA RECODE\BIN\WIN32\RELEASE\\" /Fd"C:\USERS\NICEL\DESKTOP\GAMMA RECODE\BIN\WIN32\RELEASE\VC141.PDB" /Gd /TC /analyze- /FC C:\USERS\NICEL\DESKTOP\GAMMA RECODE\CSGOCHEAT\LUA\LUTF8LIB.C
^C:\USERS\NICEL\DESKTOP\GAMMA RECODE\CSGOCHEAT\LUA\LVM.C
/c /Zi /nologo /W0 /WX- /diagnostics:classic /sdl- /Od /Oi /Oy- /D WIN32 /D NDEBUG /D ANTARIO_EXPORTS /D _WINDOWS /D _USRDLL /D _WINDLL /D _MBCS /Gm- /EHsc /MD /GS /Gy /fp:precise /Zc:wchar_t /Zc:forScope /Zc:inline /std:c++latest /Fo"C:\USERS\NICEL\DESKTOP\GAMMA RECODE\BIN\WIN32\RELEASE\\" /Fd"C:\USERS\NICEL\DESKTOP\GAMMA RECODE\BIN\WIN32\RELEASE\VC141.PDB" /Gd /TC /analyze- /FC C:\USERS\NICEL\DESKTOP\GAMMA RECODE\CSGOCHEAT\LUA\LVM.C
^C:\USERS\NICEL\DESKTOP\GAMMA RECODE\CSGOCHEAT\LUA\LZIO.C
/c /Zi /nologo /W0 /WX- /diagnostics:classic /sdl- /Od /Oi /Oy- /D WIN32 /D NDEBUG /D ANTARIO_EXPORTS /D _WINDOWS /D _USRDLL /D _WINDLL /D _MBCS /Gm- /EHsc /MD /GS /Gy /fp:precise /Zc:wchar_t /Zc:forScope /Zc:inline /std:c++latest /Fo"C:\USERS\NICEL\DESKTOP\GAMMA RECODE\BIN\WIN32\RELEASE\\" /Fd"C:\USERS\NICEL\DESKTOP\GAMMA RECODE\BIN\WIN32\RELEASE\VC141.PDB" /Gd /TC /analyze- /FC C:\USERS\NICEL\DESKTOP\GAMMA RECODE\CSGOCHEAT\LUA\LZIO.C
^C:\USERS\NICEL\DESKTOP\GAMMA RECODE\CSGOCHEAT\UTILS\C_LOG.CPP
/c /Zi /nologo /W0 /WX- /diagnostics:classic /sdl- /Od /Oi /Oy- /D WIN32 /D NDEBUG /D ANTARIO_EXPORTS /D _WINDOWS /D _USRDLL /D _WINDLL /D _MBCS /Gm- /EHsc /MD /GS /Gy /fp:precise /Zc:wchar_t /Zc:forScope /Zc:inline /std:c++latest /Fo"C:\USERS\NICEL\DESKTOP\GAMMA RECODE\BIN\WIN32\RELEASE\\" /Fd"C:\USERS\NICEL\DESKTOP\GAMMA RECODE\BIN\WIN32\RELEASE\VC141.PDB" /Gd /TP /analyze- /FC C:\USERS\NICEL\DESKTOP\GAMMA RECODE\CSGOCHEAT\UTILS\C_LOG.CPP
^C:\USERS\NICEL\DESKTOP\GAMMA RECODE\CSGOCHEAT\LOKI_MENU.CPP
/c /Zi /nologo /W0 /WX- /diagnostics:classic /sdl- /Od /Oi /Oy- /D WIN32 /D NDEBUG /D ANTARIO_EXPORTS /D _WINDOWS /D _USRDLL /D _WINDLL /D _MBCS /Gm- /EHsc /MD /GS /Gy /fp:precise /Zc:wchar_t /Zc:forScope /Zc:inline /std:c++latest /Fo"C:\USERS\NICEL\DESKTOP\GAMMA RECODE\BIN\WIN32\RELEASE\\" /Fd"C:\USERS\NICEL\DESKTOP\GAMMA RECODE\BIN\WIN32\RELEASE\VC141.PDB" /Gd /TP /analyze- /FC C:\USERS\NICEL\DESKTOP\GAMMA RECODE\CSGOCHEAT\LOKI_MENU.CPP
